<?xml version="1.0" encoding="utf-8"?>
<!-- Generator: Adobe Illustrator 20.1.0, SVG Export Plug-In . SVG Version: 6.00 Build 0)  -->
<svg version="1.1" id="Layer_1" xmlns="http://www.w3.org/2000/svg" xmlns:xlink="http://www.w3.org/1999/xlink" x="0px" y="0px"
	 width="18px" height="21px" viewBox="0 0 18 10" style="enable-background:new 0 0 18 10;" xml:space="preserve">
<style type="text/css">
	.st0{fill:#323232;}
</style>
<g id="cRUNCH.tif">
	<g>
		<path class="st0" d="M10.8,2.5c0,0.5,0,1.1,0,1.7c0,0.1,0.1,0.3,0.1,0.4c0.1,0.3,0.4,0.3,0.5,0.1c0.3-0.3,0.5-0.5,0.8-0.9
			c0.5-0.9,1.1-1.7,1.5-2.8c0,0,0,0,0-0.1c0.3-0.4,0.4-0.4,0.8-0.4c0.9,0,1.9,0,2.8,0c0.1,0,0.3,0,0.4,0C18,0.6,18,0.8,18,0.9
			c-0.1,0.3-0.1,0.5-0.3,0.8c-0.4,0.8-0.9,1.5-1.5,2.1c-0.3,0.4-0.5,0.8-0.8,1.2c-0.3,0.4-0.3,0.7,0.1,1.1c0.4,0.5,0.9,0.9,1.3,1.3
			c0.4,0.4,0.7,0.8,0.9,1.2C18,8.8,18,9.1,18,9.2c0,0.3-0.1,0.4-0.4,0.4c-0.1,0-0.3,0-0.5,0c-0.8,0-1.6,0-2.4,0
			c-0.4,0-0.8-0.1-1.1-0.4c-0.4-0.4-0.8-0.8-1.2-1.2c-0.1-0.1-0.3-0.3-0.5-0.5l-0.1-0.1c-0.3-0.1-0.4-0.1-0.5,0.1
			c-0.3,0.3-0.4,0.5-0.4,0.8c0,0.3,0,0.5-0.1,0.8c0,0.3-0.1,0.5-0.5,0.5C9,9.6,7.8,9.7,6.7,9.2c-0.9-0.5-1.9-1.1-2.5-2
			c-1.5-1.9-2.5-3.9-3.6-6c0-0.1-0.1-0.3-0.1-0.4c0.1,0,0.3-0.3,0.5-0.3c0.1,0,0.3,0,0.4,0c0.8,0,1.5,0,2.3,0c0.4,0,0.7,0.1,0.8,0.5
			C4.9,2,5.3,2.8,5.8,3.7c0.3,0.4,0.5,0.8,0.8,1.1c0.1,0.1,0.3,0.3,0.5,0.1l0.1-0.1C7.4,4.5,7.4,4.3,7.5,4c0.1-0.7,0.1-1.3,0-1.9
			c0-0.3-0.1-0.4-0.1-0.7C7.3,1,7,0.9,6.7,0.8c-0.1,0-0.1,0-0.3-0.1c0-0.1,0.1-0.1,0.1-0.3C6.7,0.2,7,0.1,7.3,0.1
			C8.2,0,9.2,0,10,0.1c0.1,0,0.1,0,0.3,0c0.4,0.1,0.5,0.3,0.5,0.7s0,0.8,0,1.1C10.8,2.1,10.8,2.4,10.8,2.5L10.8,2.5z"/>
	</g>
</g>
</svg>
