<?xml version="1.0" encoding="utf-8"?>
<!-- Generator: Adobe Illustrator 20.1.0, SVG Export Plug-In . SVG Version: 6.00 Build 0)  -->
<svg version="1.1" id="Layer_1" xmlns="http://www.w3.org/2000/svg" xmlns:xlink="http://www.w3.org/1999/xlink" x="0px" y="0px"
	 width="20px" height="20px" viewBox="0 0 20 20" style="enable-background:new 0 0 20 20;" xml:space="preserve">
<style type="text/css">
	.st0{fill:#ffffff;}
</style>
<path class="st0" d="M0.2,15.7c0,0.3,0.1,0.6,0.3,0.8l2.8,2.7c0.1,0.1,0.3,0.3,0.5,0.4c0.2,0.1,0.4,0.2,0.6,0.2c0,0,0.1,0,0.1,0
	c0.1,0,0.2,0,0.3,0c0.3,0,0.7,0,1.3-0.1c0.6-0.1,1.3-0.3,2.2-0.7c0.9-0.4,1.8-0.9,2.9-1.6c1.1-0.7,2.2-1.7,3.5-2.9
	c1-1,1.8-1.9,2.4-2.7c0.6-0.9,1.2-1.7,1.5-2.4c0.4-0.7,0.7-1.4,0.9-2c0.2-0.6,0.3-1.1,0.4-1.6c0.1-0.4,0.1-0.8,0.1-1
	c0-0.2,0-0.4,0-0.4c0-0.2-0.1-0.4-0.2-0.6c-0.1-0.2-0.2-0.4-0.4-0.5l-2.8-2.8c-0.2-0.2-0.4-0.3-0.7-0.3c-0.2,0-0.3,0.1-0.5,0.2
	c-0.1,0.1-0.3,0.2-0.4,0.4l-2.2,4.2c-0.1,0.2-0.2,0.5-0.1,0.7c0.1,0.3,0.2,0.5,0.4,0.7l1,1c0,0,0.1,0.1,0.1,0.1c0,0.1,0,0.1,0,0.2
	c-0.1,0.3-0.2,0.6-0.4,1C13.6,9,13.3,9.4,13,9.9c-0.3,0.5-0.8,1-1.5,1.7c-0.6,0.6-1.2,1.1-1.7,1.5c-0.5,0.4-0.9,0.6-1.2,0.8
	c-0.3,0.2-0.6,0.3-0.7,0.3l-0.3,0.1c0,0-0.1,0-0.1,0c-0.1,0-0.1,0-0.1-0.1l-1.2-1.2c-0.2-0.2-0.5-0.3-0.9-0.3c-0.2,0-0.4,0-0.6,0.1
	h0l-4,2.4C0.4,15.2,0.2,15.4,0.2,15.7z"/>
</svg>
