<?xml version="1.0" encoding="utf-8"?>
<!-- Generator: Adobe Illustrator 20.1.0, SVG Export Plug-In . SVG Version: 6.00 Build 0)  -->
<svg version="1.1" id="Layer_1" xmlns="http://www.w3.org/2000/svg" xmlns:xlink="http://www.w3.org/1999/xlink" x="0px" y="0px"
	 width="7px" height="9px" viewBox="0 0 7 9" style="enable-background:new 0 0 7 9;" xml:space="preserve">
<style type="text/css">
	.st0{fill-rule:evenodd;clip-rule:evenodd;fill:#303030;}
	.st1{fill-rule:evenodd;clip-rule:evenodd;fill:#BFC7DB;}
</style>
<path class="st0" d="M2.4,0.8l1-0.7L7,4.9L6,5.6L2.4,0.8z"/>
<path class="st0" d="M2.4,8.3l1,0.7L7,4.1L6,3.4L2.4,8.3z"/>
<path class="st1" d="M0,4.6V4.4h4.7v0.2H0z"/>
</svg>
