<?xml version="1.0" encoding="utf-8"?>
<!-- Generator: Adobe Illustrator 20.1.0, SVG Export Plug-In . SVG Version: 6.00 Build 0)  -->
<svg version="1.1" id="Layer_1" xmlns="http://www.w3.org/2000/svg" xmlns:xlink="http://www.w3.org/1999/xlink" x="0px" y="0px"
	 width="6px" height="8px" viewBox="0 0 6 8" style="enable-background:new 0 0 6 8;" xml:space="preserve">
<style type="text/css">
	.st0{fill:#CDD1D9;}
</style>
<g>
	<g>
		<g>
			<polygon class="st0" points="1.3,8 0.5,7.1 4,4.1 0.5,1.1 1.3,0.2 5.8,4.1 			"/>
		</g>
	</g>
</g>
</svg>
