<?xml version="1.0" encoding="utf-8"?>
<!-- Generator: Adobe Illustrator 20.1.0, SVG Export Plug-In . SVG Version: 6.00 Build 0)  -->
<svg version="1.1" id="Layer_1" xmlns="http://www.w3.org/2000/svg" xmlns:xlink="http://www.w3.org/1999/xlink" x="0px" y="0px"
	 width="7px" height="11px" viewBox="0 0 7 11" style="enable-background:new 0 0 7 11;" xml:space="preserve">
<style type="text/css">
	.st0{fill:#BEC6D9;}
</style>
<path class="st0" d="M5.4,11L7,9.3L3.3,5.5L7,1.7L5.4,0L0,5.5L5.4,11z"/>
</svg>
