<?xml version="1.0" encoding="utf-8"?>
<!-- Generator: Adobe Illustrator 20.1.0, SVG Export Plug-In . SVG Version: 6.00 Build 0)  -->
<svg version="1.1" id="Layer_1" xmlns="http://www.w3.org/2000/svg" xmlns:xlink="http://www.w3.org/1999/xlink" x="0px" y="0px"
	 width="167px" height="56px" viewBox="0 0 167 56" style="enable-background:new 0 0 167 56;" xml:space="preserve">
<style type="text/css">
	.st0{fill:#FFFFFF;}
</style>
<g>
	<path class="st0" d="M52.6,12.1c-0.1-0.3-0.1-0.5-0.3-1.1c-0.1-0.3-0.1-0.5-0.3-1.1c-0.1-0.3-0.1-0.4-0.4-1c-0.1-0.3-0.1-0.3-0.4-1
		c-0.1-0.3-0.1-0.3-0.4-0.9c-0.1-0.3-0.1-0.3-0.4-0.9C50.3,6,50.3,6,50.1,5.5C50,5.3,50,5.3,49.8,4.8c-0.1-0.2-0.1-0.2-0.3-0.6
		C49.3,4,49.3,4,49,3.7c-0.1-0.2-0.1-0.2-0.3-0.5C48.6,3,48.6,3,48.4,2.8c-0.1-0.1-0.1-0.2-0.3-0.3c-0.1-0.1-0.2-0.2-0.3-0.3
		S47.6,2.1,47.4,2l0,0h-0.1l0,0l0,0h-0.1h-0.1H47h-0.1c-0.3,0.1-0.8,0.6-1.3,2c-0.2,0.6-0.9,2.4-1.9,5c1.7,0.3,3.6,0.7,5.3,1.3
		c1.9,0.7,3.2,1.4,3.6,2C52.6,12.3,52.6,12.1,52.6,12.1z"/>
	<path class="st0" d="M55.5,30.2c-0.1-1.1-0.1-1.2-0.2-3.3c-0.1-1-0.1-1.1-0.3-3c-0.1-0.9-0.1-1-0.4-2.7c-0.1-0.8-0.1-0.9-0.4-2.4
		c-0.1-0.7-0.2-0.8-0.4-2c-0.1-0.3-0.2-0.8-0.3-1.1C53.3,15,51.7,13.9,49,13c-2-0.7-4.3-1.2-6.3-1.5c-1.4,3.6-3.2,8.2-5.3,12.9
		c3.5,0.5,7.5,1.4,11.1,2.6c4.1,1.4,6.6,3,7.1,4.1c0,0.1,0.1,0,0.1,0L55.5,30.2z"/>
	<path class="st0" d="M48.1,29.9c-3.9-1.3-8.3-2.3-12.1-2.8c-2.3,4.9-4.9,9.8-7.6,13.7c4.8,0.1,11.8,1.1,17.5,3.4
		c2.8,1.1,6.1,2.7,7.5,4.1l0,0l0,0c0.1,0.1,0.2,0.2,0.3,0.3c0.4,0.3,0.5,0.7,0.6,0.3c0.2-0.9,0.2-1.3,0.6-3.5C55,44,55,44,55.3,41.3
		c0.1-1.3,0.1-1.4,0.3-3.9c0-0.8,0-1.9,0.1-2.8C55.6,33.4,52.9,31.6,48.1,29.9z"/>
	<path class="st0" d="M30,53.8c18-2.4,24.1-1.7,26-1.2c0.6,0.2,0.5,0.1,0.1-0.2c-2.6-1.8-12.1-7.6-25.8-7.1
		C18.4,45.6,14,48.9,0,47.2c0,0,0,0,0.1,0.1C0.6,48.4,5.6,57,30,53.8"/>
</g>
<g>
	<path class="st0" d="M75.4,24h-1.9v-7.5h-3.4V24h-1.9v-9.1h7.2C75.4,14.9,75.4,24,75.4,24z"/>
	<path class="st0" d="M77.7,14.9h1.7v4.4v1.2l-0.1,1.3l0,0l4.2-6.9h2.3V24h-1.7v-4.4c0-0.6,0-1.5,0.1-2.6h-0.1L80,24h-2.3V14.9z"/>
	<path class="st0" d="M94.5,17.7c0,1-0.3,1.7-0.9,2.3c-0.6,0.5-1.5,0.8-2.6,0.8h-0.8V24h-1.9v-9.1h2.9c1.1,0,1.9,0.2,2.5,0.7
		C94.2,16.1,94.5,16.8,94.5,17.7z M90.1,19.2h0.6c0.6,0,1-0.1,1.3-0.4c0.3-0.2,0.4-0.6,0.4-1c0-0.5-0.1-0.8-0.4-1
		c-0.2-0.2-0.6-0.3-1.2-0.3h-0.9v2.7H90.1z"/>
	<path class="st0" d="M104.5,19.4c0,1.5-0.4,2.7-1.1,3.5s-1.8,1.2-3.2,1.2s-2.5-0.4-3.2-1.2c-0.7-0.8-1.1-2-1.1-3.5s0.4-2.7,1.1-3.5
		c0.8-0.8,1.8-1.2,3.2-1.2s2.5,0.4,3.2,1.2C104.1,16.7,104.5,17.9,104.5,19.4z M97.9,19.4c0,1,0.2,1.8,0.6,2.3s1,0.8,1.7,0.8
		c1.5,0,2.3-1,2.3-3.1s-0.8-3.1-2.3-3.1c-0.8,0-1.4,0.3-1.7,0.8C98,17.6,97.9,18.4,97.9,19.4z"/>
	<path class="st0" d="M112.2,14.9v1.6h-3.8V24h-1.9v-9.1H112.2z"/>
	<path class="st0" d="M121.9,19.4c0,1.5-0.4,2.7-1.1,3.5s-1.8,1.2-3.2,1.2s-2.5-0.4-3.2-1.2c-0.7-0.8-1.1-2-1.1-3.5s0.4-2.7,1.1-3.5
		c0.8-0.8,1.8-1.2,3.2-1.2s2.5,0.4,3.2,1.2C121.5,16.7,121.9,17.9,121.9,19.4z M115.2,19.4c0,1,0.2,1.8,0.6,2.3s1,0.8,1.7,0.8
		c1.5,0,2.3-1,2.3-3.1s-0.8-3.1-2.3-3.1c-0.8,0-1.4,0.3-1.7,0.8C115.4,17.6,115.2,18.4,115.2,19.4z"/>
	<path class="st0" d="M123.8,14.9h2.8c1.3,0,2.2,0.2,2.8,0.6c0.6,0.4,0.9,1,0.9,1.8c0,0.5-0.1,1-0.4,1.3c-0.3,0.3-0.6,0.6-1,0.6v0.1
		c0.6,0.1,1,0.4,1.3,0.7c0.3,0.4,0.4,0.8,0.4,1.4c0,0.8-0.3,1.5-0.9,1.9c-0.6,0.5-1.4,0.7-2.5,0.7h-3.4
		C123.8,24,123.8,14.9,123.8,14.9z M125.7,18.5h1.1c0.5,0,0.9-0.1,1.1-0.2c0.2-0.2,0.4-0.4,0.4-0.8c0-0.3-0.1-0.6-0.4-0.8
		c-0.3-0.2-0.7-0.2-1.2-0.2h-1C125.7,16.5,125.7,18.5,125.7,18.5z M125.7,20v2.4h1.3c0.5,0,0.9-0.1,1.2-0.3c0.3-0.2,0.4-0.5,0.4-0.9
		c0-0.8-0.5-1.1-1.6-1.1h-1.3V20z"/>
	<path class="st0" d="M136.2,16.4c-0.7,0-1.3,0.3-1.7,0.8s-0.6,1.3-0.6,2.3c0,2,0.8,3.1,2.3,3.1c0.6,0,1.4-0.2,2.3-0.5v1.6
		c-0.7,0.3-1.6,0.5-2.5,0.5c-1.3,0-2.3-0.4-3-1.2c-0.7-0.8-1.1-2-1.1-3.5c0-0.9,0.2-1.8,0.5-2.5s0.8-1.3,1.5-1.6
		c0.6-0.4,1.4-0.6,2.3-0.6c0.9,0,1.8,0.2,2.7,0.6l-0.6,1.6c-0.3-0.2-0.7-0.3-1-0.4C136.9,16.4,136.6,16.4,136.2,16.4z"/>
	<path class="st0" d="M147.9,24h-2.2l-3.3-4.6V24h-1.9v-9.1h1.9v4.4l3.3-4.4h2.1l-3.3,4.4L147.9,24z"/>
	<path class="st0" d="M154.7,24l-0.7-2.2h-3.3L150,24h-2.1l3.2-9.2h2.4l3.2,9.2H154.7z M153.5,20.2c-0.6-2-1-3.1-1-3.3
		c-0.1-0.3-0.1-0.5-0.2-0.6c-0.1,0.5-0.5,1.9-1.2,4h2.4V20.2z"/>
	<path class="st0" d="M161,20.5l-2.1,3.5h-2.1l2.6-4c-0.5-0.2-0.9-0.5-1.2-1c-0.3-0.4-0.4-0.9-0.4-1.5c0-0.8,0.3-1.5,0.9-1.9
		c0.6-0.5,1.4-0.7,2.6-0.7h3V24h-1.9v-3.5H161z M162.2,16.5h-1c-0.5,0-0.9,0.1-1.2,0.3c-0.3,0.2-0.4,0.5-0.4,0.9s0.1,0.7,0.4,1
		c0.3,0.2,0.7,0.3,1.2,0.3h0.9v-2.5H162.2z"/>
	<path class="st0" d="M74.5,31.5c0,1-0.3,1.7-0.9,2.3c-0.6,0.5-1.5,0.8-2.6,0.8h-0.8v3.2h-1.9v-9.1h2.9c1.1,0,1.9,0.2,2.5,0.7
		C74.2,29.8,74.5,30.5,74.5,31.5z M70.1,32.9h0.6c0.6,0,1-0.1,1.3-0.4c0.3-0.2,0.4-0.6,0.4-1c0-0.5-0.1-0.8-0.4-1
		c-0.2-0.2-0.6-0.3-1.2-0.3h-0.9v2.7H70.1z"/>
	<path class="st0" d="M76.2,28.6h1.7V33v1.2l-0.1,1.3l0,0l4.2-6.9h2.3v9.1h-1.7v-4.4c0-0.6,0-1.5,0.1-2.6h-0.1l-4.2,7h-2.3
		L76.2,28.6L76.2,28.6z"/>
	<path class="st0" d="M86.7,28.6h2.8c1.3,0,2.2,0.2,2.8,0.6c0.6,0.4,0.9,1,0.9,1.8c0,0.5-0.1,1-0.4,1.3s-0.6,0.6-1,0.6V33
		c0.6,0.1,1,0.4,1.3,0.7c0.3,0.4,0.4,0.8,0.4,1.4c0,0.8-0.3,1.5-0.9,1.9c-0.6,0.5-1.4,0.7-2.5,0.7h-3.4
		C86.7,37.7,86.7,28.6,86.7,28.6z M88.6,32.3h1.1c0.5,0,0.9-0.1,1.1-0.2c0.2-0.2,0.4-0.4,0.4-0.8c0-0.3-0.1-0.6-0.4-0.8
		c-0.3-0.2-0.7-0.2-1.2-0.2h-1V32.3z M88.6,33.8v2.4h1.3c0.5,0,0.9-0.1,1.2-0.3c0.3-0.2,0.4-0.5,0.4-0.9c0-0.8-0.5-1.1-1.6-1.1h-1.3
		V33.8z"/>
	<path class="st0" d="M101.7,34.9c0,1.9-1.3,2.9-3.8,2.9h-2.7v-9.1h1.9v3.5H98c1.2,0,2.1,0.2,2.8,0.7
		C101.4,33.4,101.7,34,101.7,34.9z M97.2,36.2h0.6c0.7,0,1.1-0.1,1.4-0.3s0.5-0.5,0.5-1c0-0.4-0.2-0.7-0.5-0.9s-0.8-0.3-1.6-0.3
		h-0.5L97.2,36.2L97.2,36.2z"/>
	<path class="st0" d="M108.7,37.8h-5.3v-9.1h5.3v1.6h-3.3v2h3.1v1.6h-3.1v2.4h3.3V37.8z"/>
	<path class="st0" d="M116.9,31.5c0,1-0.3,1.7-0.9,2.3c-0.6,0.5-1.5,0.8-2.6,0.8h-0.8v3.2h-1.9v-9.1h2.9c1.1,0,1.9,0.2,2.5,0.7
		C116.6,29.8,116.9,30.5,116.9,31.5z M112.5,32.9h0.6c0.6,0,1-0.1,1.3-0.4c0.3-0.2,0.4-0.6,0.4-1c0-0.5-0.1-0.8-0.4-1
		c-0.2-0.2-0.6-0.3-1.2-0.3h-0.9v2.7H112.5z"/>
	<path class="st0" d="M124.2,37.8l-0.7-2.2h-3.3l-0.7,2.2h-2.1l3.2-9.2h2.4l3.2,9.2H124.2z M123.1,34c-0.6-2-1-3.1-1-3.3
		c-0.1-0.3-0.1-0.5-0.2-0.6c-0.1,0.5-0.5,1.9-1.2,4L123.1,34L123.1,34z"/>
</g>
<g>
	<path class="st0" d="M72,44.6h0.9v3.1l2.7-3.1h1.1L74,47.7l2.9,3.3h-1.1L73,47.7V51h-1v-3.3L69.1,51H68l2.9-3.3l-2.7-3.1h1.1
		l2.6,3.1L72,44.6L72,44.6z"/>
	<path class="st0" d="M79,44.6v4.1v1.1v0.3l3.5-5.5h1.2V51h-0.9v-3.9v-0.8v-0.8L79.3,51h-1.2v-6.4H79z"/>
	<path class="st0" d="M90.7,51h-1v-5.6h-1.9c-0.1,1.4-0.3,2.5-0.4,3.3s-0.4,1.4-0.7,1.8s-0.7,0.6-1.1,0.6c-0.2,0-0.4,0-0.5-0.1v-0.7
		c0.1,0,0.2,0,0.3,0c0.4,0,0.8-0.5,1.1-1.4s0.5-2.4,0.6-4.3h3.8V51H90.7z"/>
	<path class="st0" d="M98.6,47.8c0,1-0.3,1.9-0.8,2.5s-1.3,0.9-2.2,0.9c-0.6,0-1.1-0.1-1.5-0.4s-0.8-0.7-1-1.2s-0.4-1.1-0.4-1.8
		c0-1,0.3-1.9,0.8-2.4s1.2-0.9,2.2-0.9c0.9,0,1.6,0.3,2.1,0.9S98.6,46.8,98.6,47.8z M93.7,47.8c0,0.8,0.2,1.4,0.5,1.9
		s0.8,0.6,1.4,0.6s1.1-0.2,1.5-0.6s0.5-1.1,0.5-1.9c0-0.8-0.2-1.4-0.5-1.9s-0.8-0.6-1.5-0.6c-0.6,0-1.1,0.2-1.4,0.6
		S93.7,47,93.7,47.8z"/>
	<path class="st0" d="M101.4,44.6v4.1v1.1v0.3l3.5-5.5h1.2V51h-0.9v-3.9v-0.8v-0.8l-3.5,5.5h-1.2v-6.4H101.4z M103.3,43.7
		c-0.7,0-1.2-0.1-1.6-0.4s-0.5-0.7-0.6-1.4h0.9c0,0.4,0.1,0.7,0.3,0.8s0.5,0.2,0.9,0.2s0.7-0.1,0.9-0.3s0.3-0.4,0.4-0.8h0.9
		c0,0.6-0.2,1.1-0.6,1.4S104,43.7,103.3,43.7z"/>
	<path class="st0" d="M115.5,44.6h1.1l-2.8,3.1l3,3.3h-1.1l-2.9-3.3V51h-1v-6.4h1v3.1L115.5,44.6z"/>
	<path class="st0" d="M123.7,47.8c0,1-0.3,1.9-0.8,2.5s-1.3,0.9-2.2,0.9c-0.6,0-1.1-0.1-1.5-0.4s-0.8-0.7-1-1.2s-0.4-1.1-0.4-1.8
		c0-1,0.3-1.9,0.8-2.4s1.2-0.9,2.2-0.9c0.9,0,1.6,0.3,2.1,0.9S123.7,46.8,123.7,47.8z M118.8,47.8c0,0.8,0.2,1.4,0.5,1.9
		s0.8,0.6,1.4,0.6s1.1-0.2,1.5-0.6s0.5-1.1,0.5-1.9c0-0.8-0.2-1.4-0.5-1.9s-0.8-0.6-1.5-0.6c-0.6,0-1.1,0.2-1.4,0.6
		S118.8,47,118.8,47.8z"/>
	<path class="st0" d="M129,50.1l0.2-0.5l0.3-0.7l1.7-4.2h1.2V51h-0.9v-5.3l-0.1,0.3l-0.3,0.9l-1.7,4.1h-0.8l-1.7-4.1
		c-0.2-0.5-0.3-0.9-0.4-1.2V51h-0.9v-6.4h1.2l1.7,4.1C128.7,49.1,128.9,49.6,129,50.1z"/>
	<path class="st0" d="M135.7,51h-1v-6.4h5.4V51h-1v-5.6h-3.4V51z"/>
	<path class="st0" d="M147.2,51h-1v-5.6h-1.9c-0.1,1.4-0.3,2.5-0.4,3.3s-0.4,1.4-0.7,1.8s-0.7,0.6-1.1,0.6c-0.2,0-0.4,0-0.5-0.1
		v-0.7c0.1,0,0.2,0,0.3,0c0.4,0,0.8-0.5,1.1-1.4s0.5-2.4,0.6-4.3h3.8V51H147.2z"/>
	<path class="st0" d="M152.2,51.1c-0.9,0-1.7-0.3-2.2-0.9s-0.8-1.4-0.8-2.4s0.3-1.9,0.8-2.5s1.2-0.9,2.1-0.9c0.8,0,1.4,0.3,1.9,0.8
		s0.7,1.2,0.7,2.1V48h-4.4c0,0.8,0.2,1.3,0.6,1.7s0.9,0.6,1.5,0.6c0.7,0,1.4-0.1,2.1-0.4v0.9c-0.3,0.1-0.7,0.3-1,0.3
		S152.7,51.1,152.2,51.1z M152,45.3c-0.5,0-0.9,0.2-1.2,0.5s-0.5,0.8-0.5,1.4h3.4c0-0.6-0.1-1.1-0.4-1.4S152.5,45.3,152,45.3z"/>
	<path class="st0" d="M160.2,44.6h1.1l-2.8,3.1l3,3.3h-1.1l-2.9-3.3V51h-1v-6.4h1v3.1L160.2,44.6z"/>
	<path class="st0" d="M165.5,51.1c-0.9,0-1.6-0.3-2.2-0.9s-0.8-1.4-0.8-2.4c0-1.1,0.3-1.9,0.8-2.5s1.3-0.9,2.2-0.9
		c0.3,0,0.6,0,0.9,0.1s0.6,0.1,0.7,0.2l-0.3,0.8c-0.2-0.1-0.4-0.2-0.7-0.2s-0.5-0.1-0.7-0.1c-1.3,0-2,0.8-2,2.5
		c0,0.8,0.2,1.4,0.5,1.8s0.8,0.6,1.4,0.6c0.5,0,1.1-0.1,1.6-0.3v0.9C166.7,51,166.2,51.1,165.5,51.1z"/>
</g>
</svg>
