<?xml version="1.0" encoding="utf-8"?>
<!-- Generator: Adobe Illustrator 20.1.0, SVG Export Plug-In . SVG Version: 6.00 Build 0)  -->
<svg version="1.1" id="Layer_1" xmlns="http://www.w3.org/2000/svg" xmlns:xlink="http://www.w3.org/1999/xlink" x="0px" y="0px"
	 width="994px" height="822px" viewBox="0 0 994 822" style="enable-background:new 0 0 994 822;" xml:space="preserve">
<style type="text/css">
	.st0{fill:none;stroke:#45525E;stroke-width:2;stroke-miterlimit:10;}
	.st1{fill:#45525E;}
	.st2{fill:#EEA941;}
	.st3{fill:none;stroke:#EEA941;stroke-miterlimit:10;}
	.st4{fill:none;stroke:#EEA941;stroke-width:2;stroke-miterlimit:10;}
</style>
<g id="_x37_">
	<line class="st0" x1="256.5" y1="50.5" x2="226.5" y2="20.5"/>
	<line class="st0" x1="177.5" y1="244.5" x2="147.5" y2="274.5"/>
	<line class="st0" x1="300.8" y1="672.2" x2="330.8" y2="642.2"/>
	<path class="st1" d="M469,153V0H278v22h57v146h-57v7h89v-7h-25V60h105v108h-30v7h30v41h15v-41h230v40h15v-40h251v496H707V265h-15v8
		H519v7h173v391H462V280h7v-7h-94v7h72v391h-94v36h101v98H25v-98h277v-36h-89V280h112v-7H199v7h7v391H36V280h113v-7h-35v-98h114v-7
		h-59v-42h-7v42H36V22h126v54h7V22h59V0H0v707h3v115h473V707h518V153H469z M342,53V22h61v31H342z M410,53V22h37v31H410z M410,704
		h-50v-10h50V704z M410,691h-50v-4h50V691z M410,684h-50v-10h50V684z M68,674h100v10H68V674z M68,687h100v4H68V687z M68,694h100v10
		H68V694z M107,175v98H85v-98H107z M78,175v98H36v-98H78z M454,819H25v-4h429V819z M454,812H25v-4h429V812z M627,704H527v-10h100
		V704z M627,691H527v-4h100V691z M627,684H527v-10h100V684z M883,704H783v-10h100V704z M883,691H783v-4h100V691z M883,684H783v-10
		h100V684z M978,358h-4V258h4V358z M978,588h-4V488h4V588z M961,258h10v100h-10V258z M961,488h10v100h-10V488z M991,588h-10V488h10
		V588z M991,358h-10V258h10V358z"/>
	<line class="st0" x1="197.5" y1="104.5" x2="167.5" y2="74.5"/>
	<line class="st0" x1="376.5" y1="274.5" x2="346.5" y2="244.5"/>
	<line class="st0" x1="395.5" y1="203.5" x2="365.5" y2="173.5"/>
	<line class="st0" x1="520.5" y1="274.5" x2="490.5" y2="244.5"/>
	<line class="st0" x1="693.5" y1="266.5" x2="663.5" y2="236.5"/>
</g>
<g id="santeh">
	<g>
		<g>
			<path class="st2" d="M399,64v27c0,6.1-4.9,11-11,11h-26c-6.1,0-11-4.9-11-11V64H399 M401,62h-52v29c0,7.2,5.8,13,13,13h26
				c7.2,0,13-5.8,13-13V62L401,62z"/>
		</g>
		<g>
			<path class="st2" d="M390,73c1.1,0,2,0.9,2,2v10c0,5.5-4.5,10-10,10h-14c-5.5,0-10-4.5-10-10V75c0-1.1,0.9-2,2-2H390 M390,71h-30
				c-2.2,0-4,1.8-4,4v10c0,6.6,5.4,12,12,12h14c6.6,0,12-5.4,12-12V75C394,72.8,392.2,71,390,71L390,71z"/>
		</g>
		<g>
			<path class="st2" d="M375,76c1.1,0,2,0.9,2,2s-0.9,2-2,2s-2-0.9-2-2S373.9,76,375,76 M375,75c-1.7,0-3,1.3-3,3s1.3,3,3,3
				s3-1.3,3-3S376.7,75,375,75L375,75z"/>
		</g>
	</g>
	<g>
		<g>
			<path class="st2" d="M438,64v39c0,5-4,9-9,9h-6c-5,0-9-4-9-9V64H438 M440,62h-28v41c0,6.1,4.9,11,11,11h6c6.1,0,11-4.9,11-11V62
				L440,62z"/>
		</g>
		<g>
			<line class="st3" x1="413" y1="74.5" x2="438" y2="74.5"/>
		</g>
		<g>
			<line class="st3" x1="413" y1="76.5" x2="438" y2="76.5"/>
		</g>
		<g>
			<path class="st2" d="M426,67c1.1,0,2,0.9,2,2s-0.9,2-2,2s-2-0.9-2-2S424.9,67,426,67 M426,66c-1.7,0-3,1.3-3,3s1.3,3,3,3
				s3-1.3,3-3S427.7,66,426,66L426,66z"/>
		</g>
	</g>
	<g>
		<g>
			<path class="st2" d="M158,26v48H40V26H158 M160,24H38v52h122V24L160,24z"/>
		</g>
		<g>
			<path class="st2" d="M136,33c8.3,0,15,6.7,15,15v4c0,8.3-6.7,15-15,15H61c-8.3,0-15-6.7-15-15v-4c0-8.3,6.7-15,15-15H136 M136,31
				H61c-9.3,0-17,7.7-17,17v4c0,9.3,7.7,17,17,17h75c9.4,0,17-7.7,17-17v-4C153,38.7,145.4,31,136,31L136,31z"/>
		</g>
		<g>
			<path class="st2" d="M139,47c1.1,0,2,0.9,2,2s-0.9,2-2,2s-2-0.9-2-2S137.9,47,139,47 M139,46c-1.7,0-3,1.3-3,3s1.3,3,3,3
				s3-1.3,3-3S140.7,46,139,46L139,46z"/>
		</g>
	</g>
	<g>
		<g>
			<path class="st2" d="M146,126c6.1,0,11,4.9,11,11v27h-48v-27c0-6.1,4.9-11,11-11H146 M146,124h-26c-7.2,0-13,5.8-13,13v29h52v-29
				C159,129.8,153.2,124,146,124L146,124z"/>
		</g>
		<g>
			<path class="st2" d="M140,133c5.5,0,10,4.5,10,10v10c0,1.1-0.9,2-2,2h-30c-1.1,0-2-0.9-2-2v-10c0-5.5,4.5-10,10-10H140 M140,131
				h-14c-6.6,0-12,5.4-12,12v10c0,2.2,1.8,4,4,4h30c2.2,0,4-1.8,4-4v-10C152,136.4,146.6,131,140,131L140,131z"/>
		</g>
		<g>
			<path class="st2" d="M133,148c1.1,0,2,0.9,2,2s-0.9,2-2,2s-2-0.9-2-2S131.9,148,133,148 M133,147c-1.7,0-3,1.3-3,3s1.3,3,3,3
				s3-1.3,3-3S134.7,147,133,147L133,147z"/>
		</g>
	</g>
	<g>
		<g>
			<path class="st2" d="M60,116c5,0,9,4,9,9v39H45v-39c0-5,4-9,9-9H60 M60,114h-6c-6.1,0-11,4.9-11,11v41h28v-41
				C71,118.9,66.1,114,60,114L60,114z"/>
		</g>
		<g>
			<line class="st3" x1="70" y1="153.5" x2="45" y2="153.5"/>
		</g>
		<g>
			<line class="st3" x1="70" y1="151.5" x2="45" y2="151.5"/>
		</g>
		<g>
			<path class="st2" d="M57,157c1.1,0,2,0.9,2,2s-0.9,2-2,2s-2-0.9-2-2S55.9,157,57,157 M57,156c-1.7,0-3,1.3-3,3s1.3,3,3,3
				s3-1.3,3-3S58.7,156,57,156L57,156z"/>
		</g>
	</g>
	<g>
		<g>
			<path class="st2" d="M88,413v48H40v-48H88 M90,411H38v52h52V411L90,411z"/>
		</g>
		<g>
			<path class="st2" d="M74.3,420c3.7,0,6.7,3,6.7,6.7v20.7c0,3.7-3,6.7-6.7,6.7H53.7c-3.7,0-6.7-3-6.7-6.7v-20.7
				c0-3.7,3-6.7,6.7-6.7H74.3 M74.3,418H53.7c-4.8,0-8.7,3.9-8.7,8.7v20.7c0,4.8,3.9,8.7,8.7,8.7h20.7c4.8,0,8.7-3.9,8.7-8.7v-20.7
				C83,421.9,79.1,418,74.3,418L74.3,418z"/>
		</g>
		<g>
			<path class="st2" d="M54,445c1.1,0,2,0.9,2,2s-0.9,2-2,2s-2-0.9-2-2S52.9,445,54,445 M54,444c-1.7,0-3,1.3-3,3s1.3,3,3,3
				s3-1.3,3-3S55.7,444,54,444L54,444z"/>
		</g>
	</g>
	<g>
		<g>
			<path class="st2" d="M88,486v48H40v-48H88 M90,484H38v52h52V484L90,484z"/>
		</g>
		<g>
			<path class="st2" d="M53,493c3.3,0,6,2.7,6,6s-2.7,6-6,6s-6-2.7-6-6S49.7,493,53,493 M53,491c-4.4,0-8,3.6-8,8s3.6,8,8,8
				s8-3.6,8-8S57.4,491,53,491L53,491z"/>
		</g>
		<g>
			<path class="st2" d="M75,493c3.3,0,6,2.7,6,6s-2.7,6-6,6s-6-2.7-6-6S71.7,493,75,493 M75,491c-4.4,0-8,3.6-8,8s3.6,8,8,8
				s8-3.6,8-8S79.4,491,75,491L75,491z"/>
		</g>
		<g>
			<path class="st2" d="M75,515c3.3,0,6,2.7,6,6s-2.7,6-6,6s-6-2.7-6-6S71.7,515,75,515 M75,513c-4.4,0-8,3.6-8,8s3.6,8,8,8
				s8-3.6,8-8S79.4,513,75,513L75,513z"/>
		</g>
		<g>
			<path class="st2" d="M53,515c3.3,0,6,2.7,6,6s-2.7,6-6,6s-6-2.7-6-6S49.7,515,53,515 M53,513c-4.4,0-8,3.6-8,8s3.6,8,8,8
				s8-3.6,8-8S57.4,513,53,513L53,513z"/>
		</g>
	</g>
	<g>
		<line class="st4" x1="89" y1="280" x2="89" y2="671"/>
	</g>
	<g>
		<g>
			<path class="st2" d="M88,619v48H40v-48H88 M90,617H38v52h52V617L90,617z"/>
		</g>
		<g>
			<line class="st3" x1="56" y1="635" x2="72" y2="651"/>
		</g>
		<g>
			<line class="st3" x1="72" y1="635" x2="56" y2="651"/>
		</g>
		<line class="st3" x1="64" y1="632" x2="64" y2="654"/>
		<line class="st3" x1="53.5" y1="643" x2="75.5" y2="643"/>
	</g>
	<g>
		<g>
			<path class="st2" d="M88,331v48H40v-48H88 M90,329H38v52h52V329L90,329z"/>
		</g>
		<g>
			<path class="st2" d="M64,340c8.3,0,15,6.7,15,15s-6.7,15-15,15s-15-6.7-15-15S55.7,340,64,340 M64,338c-9.4,0-17,7.6-17,17
				s7.6,17,17,17s17-7.6,17-17S73.4,338,64,338L64,338z"/>
		</g>
		<g>
			<path class="st2" d="M64,353c1.1,0,2,0.9,2,2s-0.9,2-2,2s-2-0.9-2-2S62.9,353,64,353 M64,352c-1.7,0-3,1.3-3,3s1.3,3,3,3
				c1.7,0,3-1.3,3-3S65.7,352,64,352L64,352z"/>
		</g>
	</g>
</g>
<g id="text">
	<g>
		<path class="st1" d="M309.1,467L309.1,467l-3.5,1.8l-0.5-2l4.3-2.3h2.2V484h-2.5V467z"/>
		<path class="st1" d="M331.4,464.5v1.7l-8.5,17.8h-2.7l8.5-17.2v-0.1h-9.5v-2.2L331.4,464.5L331.4,464.5z"/>
		<path class="st1" d="M333.3,487.7c0.7-1.8,1.5-5,1.8-7.2l2.9-0.3c-0.7,2.6-2,5.9-2.9,7.3L333.3,487.7z"/>
		<path class="st1" d="M340.3,484v-1.6l2.1-2c5-4.7,7.2-7.3,7.3-10.2c0-2-1-3.8-3.9-3.8c-1.8,0-3.2,0.9-4.1,1.6l-0.8-1.9
			c1.4-1.1,3.3-2,5.5-2c4.2,0,6,2.9,6,5.7c0,3.6-2.6,6.5-6.7,10.5l-1.6,1.4v0.1h8.8v2.2H340.3z"/>
	</g>
	<g>
		<path class="st1" d="M556.1,467L556.1,467l-3.5,1.8l-0.5-2l4.3-2.3h2.2V484h-2.5L556.1,467L556.1,467z"/>
		<path class="st1" d="M576.9,466.4c-0.5,0-1.2,0-2,0.1c-4.1,0.7-6.3,3.7-6.8,6.9h0.1c0.9-1.2,2.6-2.2,4.7-2.2
			c3.5,0,5.9,2.5,5.9,6.3c0,3.6-2.4,6.9-6.5,6.9c-4.2,0-6.9-3.2-6.9-8.3c0-3.8,1.4-6.9,3.3-8.8c1.6-1.6,3.8-2.6,6.2-2.9
			c0.8-0.1,1.4-0.1,1.9-0.1L576.9,466.4L576.9,466.4z M576.1,477.6c0-2.8-1.6-4.5-4-4.5c-1.6,0-3.1,1-3.8,2.4
			c-0.2,0.3-0.3,0.7-0.3,1.2c0.1,3.2,1.5,5.6,4.3,5.6C574.6,482.3,576.1,480.4,576.1,477.6z"/>
		<path class="st1" d="M580.3,487.7c0.7-1.8,1.5-5,1.8-7.2l2.9-0.3c-0.7,2.6-2,5.9-2.8,7.3L580.3,487.7z"/>
		<path class="st1" d="M588.9,482.1c0.6,0.1,1.2,0,2.1-0.1c1.5-0.2,3-0.8,4.1-1.9c1.3-1.2,2.2-2.9,2.6-5.2h-0.1
			c-1.1,1.3-2.6,2.1-4.6,2.1c-3.5,0-5.8-2.6-5.8-6c0-3.7,2.7-6.9,6.7-6.9c4,0,6.4,3.2,6.4,8.2c0,4.3-1.4,7.3-3.4,9.1
			c-1.5,1.5-3.6,2.4-5.7,2.6c-1,0.1-1.8,0.2-2.4,0.1L588.9,482.1L588.9,482.1z M589.8,470.9c0,2.4,1.5,4.1,3.8,4.1
			c1.8,0,3.2-0.9,3.8-2c0.2-0.2,0.2-0.5,0.2-1c0-3.3-1.2-5.9-4-5.9C591.4,466.2,589.8,468.2,589.8,470.9z"/>
	</g>
	<g>
		<path class="st1" d="M804.3,484v-1.6l2.1-2c5-4.7,7.2-7.3,7.3-10.2c0-2-1-3.8-3.9-3.8c-1.8,0-3.2,0.9-4.1,1.6l-0.8-1.9
			c1.3-1.1,3.3-2,5.5-2c4.2,0,6,2.9,6,5.7c0,3.6-2.6,6.5-6.7,10.5l-1.6,1.4v0.1h8.8v2.2H804.3z"/>
		<path class="st1" d="M820.4,481c0.8,0.5,2.5,1.2,4.3,1.2c3.4,0,4.4-2.2,4.4-3.8c0-2.7-2.5-3.9-5-3.9h-1.5v-2h1.5
			c1.9,0,4.3-1,4.3-3.3c0-1.6-1-2.9-3.4-2.9c-1.6,0-3.1,0.7-3.9,1.3l-0.7-1.9c1-0.8,3-1.5,5.1-1.5c3.8,0,5.6,2.3,5.6,4.6
			c0,2-1.2,3.7-3.6,4.6v0.1c2.4,0.5,4.3,2.3,4.3,5c0,3.1-2.4,5.9-7.1,5.9c-2.2,0-4.1-0.7-5.1-1.3L820.4,481z"/>
		<path class="st1" d="M834.3,487.7c0.7-1.8,1.5-5,1.8-7.2l2.9-0.3c-0.7,2.6-2,5.9-2.8,7.3L834.3,487.7z"/>
		<path class="st1" d="M853,466.7h-7.4l-0.8,5c0.4-0.1,0.9-0.1,1.6-0.1c1.5,0,3,0.3,4.2,1c1.5,0.9,2.8,2.5,2.8,5
			c0,3.8-3,6.7-7.3,6.7c-2.1,0-3.9-0.6-4.9-1.2l0.7-2c0.8,0.5,2.4,1.1,4.2,1.1c2.5,0,4.6-1.6,4.6-4.2c0-2.5-1.7-4.3-5.6-4.3
			c-1.1,0-2,0.1-2.7,0.2l1.3-9.4h9.3L853,466.7L853,466.7z"/>
	</g>
	<g>
		<path class="st1" d="M132.1,467L132.1,467l-3.4,1.8l-0.5-2l4.3-2.3h2.2V484h-2.6V467z"/>
		<path class="st1" d="M141.7,484v-1.6l2.1-2c5-4.7,7.2-7.3,7.3-10.2c0-2-1-3.8-3.9-3.8c-1.8,0-3.2,0.9-4.1,1.6l-0.8-1.9
			c1.4-1.1,3.3-2,5.5-2c4.2,0,6,2.9,6,5.7c0,3.6-2.6,6.5-6.7,10.5l-1.6,1.4v0.1h8.8v2.2H141.7z"/>
		<path class="st1" d="M156.3,487.7c0.7-1.8,1.5-5,1.8-7.2l2.9-0.3c-0.7,2.6-2,5.9-2.9,7.3L156.3,487.7z"/>
		<path class="st1" d="M164.9,482.1c0.6,0.1,1.2,0,2.1-0.1c1.5-0.2,3-0.8,4.1-1.9c1.3-1.2,2.2-2.9,2.6-5.2h-0.1
			c-1.1,1.3-2.6,2.1-4.6,2.1c-3.5,0-5.8-2.6-5.8-6c0-3.7,2.7-6.9,6.7-6.9s6.4,3.2,6.4,8.2c0,4.3-1.4,7.3-3.4,9.1
			c-1.5,1.5-3.6,2.4-5.7,2.6c-1,0.1-1.8,0.2-2.4,0.1L164.9,482.1L164.9,482.1z M165.8,470.9c0,2.4,1.5,4.1,3.8,4.1
			c1.8,0,3.1-0.9,3.8-2c0.1-0.2,0.2-0.5,0.2-1c0-3.3-1.2-5.9-4-5.9C167.4,466.2,165.8,468.2,165.8,470.9z"/>
	</g>
	<g>
		<path class="st1" d="M208,773c0.8,0.5,2.5,1.2,4.3,1.2c3.4,0,4.4-2.2,4.4-3.8c0-2.7-2.5-3.9-5-3.9h-1.5v-2h1.5
			c1.9,0,4.4-1,4.4-3.3c0-1.6-1-2.9-3.4-2.9c-1.6,0-3.1,0.7-3.9,1.3l-0.7-1.9c1-0.8,3-1.5,5.1-1.5c3.8,0,5.6,2.3,5.6,4.6
			c0,2-1.2,3.7-3.6,4.6v0.1c2.4,0.5,4.4,2.3,4.4,5c0,3.1-2.4,5.8-7.1,5.8c-2.2,0-4.1-0.7-5.1-1.3L208,773z"/>
		<path class="st1" d="M221.9,779.7c0.7-1.8,1.5-5,1.8-7.2l2.9-0.3c-0.7,2.6-2,5.9-2.9,7.3L221.9,779.7z"/>
		<path class="st1" d="M240.6,758.7h-7.4l-0.8,5c0.4-0.1,0.9-0.1,1.6-0.1c1.5,0,3,0.3,4.2,1c1.5,0.9,2.8,2.5,2.8,5
			c0,3.8-3,6.7-7.3,6.7c-2.1,0-3.9-0.6-4.9-1.2l0.7-2c0.8,0.5,2.4,1.1,4.2,1.1c2.5,0,4.6-1.6,4.6-4.2c0-2.5-1.7-4.3-5.6-4.3
			c-1.1,0-2,0.1-2.7,0.2l1.3-9.4h9.3L240.6,758.7L240.6,758.7z"/>
	</g>
	<g>
		<path class="st1" d="M235.1,220L235.1,220l-3.4,1.8l-0.5-2l4.3-2.3h2.2V237h-2.6V220z"/>
		<path class="st1" d="M257.7,227c0,6.6-2.5,10.3-6.8,10.3c-3.8,0-6.4-3.6-6.4-10c0-6.5,2.8-10.1,6.8-10.1
			C255.4,217.2,257.7,220.8,257.7,227z M247.1,227.3c0,5.1,1.6,7.9,4,7.9c2.7,0,4-3.1,4-8.1c0-4.8-1.2-7.9-4-7.9
			C248.8,219.2,247.1,222,247.1,227.3z"/>
		<path class="st1" d="M259.3,240.7c0.7-1.8,1.5-5,1.8-7.2l2.9-0.3c-0.7,2.6-2,5.9-2.9,7.3L259.3,240.7z"/>
		<path class="st1" d="M277.5,219.4c-0.5,0-1.2,0-2,0.1c-4.1,0.7-6.3,3.7-6.8,6.9h0.1c0.9-1.2,2.5-2.2,4.7-2.2
			c3.5,0,5.9,2.5,5.9,6.3c0,3.6-2.4,6.9-6.5,6.9c-4.2,0-6.9-3.2-6.9-8.3c0-3.8,1.4-6.9,3.3-8.8c1.6-1.6,3.8-2.6,6.2-2.9
			c0.8-0.1,1.4-0.1,1.9-0.1V219.4z M276.7,230.6c0-2.8-1.6-4.5-4-4.5c-1.6,0-3.1,1-3.8,2.4c-0.2,0.3-0.3,0.7-0.3,1.2
			c0.1,3.2,1.5,5.6,4.3,5.6C275.2,235.3,276.7,233.4,276.7,230.6z"/>
	</g>
	<g>
		<path class="st1" d="M237.5,111v-5.3h-9.1V104l8.7-12.4h2.9v12.1h2.7v2.1H240v5.3H237.5z M237.5,103.6v-6.5c0-1,0-2,0.1-3.1h-0.1
			c-0.6,1.1-1.1,2-1.6,2.9l-4.8,6.6v0.1C231.1,103.6,237.5,103.6,237.5,103.6z"/>
		<path class="st1" d="M243.9,114.7c0.7-1.8,1.5-5,1.8-7.2l2.9-0.3c-0.7,2.6-2,5.9-2.9,7.3L243.9,114.7z"/>
		<path class="st1" d="M262.6,93.7h-7.4l-0.8,5c0.4-0.1,0.9-0.1,1.6-0.1c1.5,0,3,0.3,4.2,1.1c1.5,0.9,2.8,2.6,2.8,5
			c0,3.8-3,6.7-7.3,6.7c-2.1,0-3.9-0.6-4.9-1.2l0.7-2c0.8,0.5,2.4,1.1,4.2,1.1c2.5,0,4.6-1.6,4.6-4.2c0-2.5-1.7-4.3-5.6-4.3
			c-1.1,0-2,0.1-2.7,0.2l1.3-9.4h9.3L262.6,93.7L262.6,93.7z"/>
	</g>
	<g>
		<path class="st1" d="M373.4,150v-1.6l2.1-2c5-4.7,7.2-7.3,7.3-10.2c0-2-1-3.8-3.9-3.8c-1.8,0-3.2,0.9-4.1,1.6l-0.8-1.9
			c1.4-1.1,3.3-2,5.5-2c4.2,0,6,2.9,6,5.7c0,3.6-2.6,6.5-6.7,10.5l-1.6,1.4v0.1h8.8v2.2H373.4z"/>
		<path class="st1" d="M387.9,153.7c0.7-1.8,1.5-5,1.8-7.2l2.9-0.3c-0.7,2.6-2,5.9-2.9,7.3L387.9,153.7z"/>
		<path class="st1" d="M400.7,133L400.7,133l-3.5,1.8l-0.5-2l4.3-2.3h2.2V150h-2.5V133z"/>
	</g>
	<g>
		<path class="st1" d="M87,108c0.8,0.5,2.5,1.2,4.3,1.2c3.4,0,4.4-2.2,4.4-3.8c0-2.7-2.5-3.9-5-3.9h-1.5v-2h1.5c1.9,0,4.3-1,4.3-3.3
			c0-1.6-1-2.9-3.4-2.9c-1.6,0-3.1,0.7-3.9,1.3L87,92.7c1-0.8,3-1.5,5.1-1.5c3.8,0,5.6,2.3,5.6,4.6c0,2-1.2,3.7-3.6,4.6v0.1
			c2.4,0.5,4.3,2.3,4.3,5c0,3.1-2.4,5.8-7.1,5.8c-2.2,0-4.1-0.7-5.1-1.3L87,108z"/>
		<path class="st1" d="M100.9,114.7c0.7-1.8,1.5-5,1.8-7.2l2.9-0.3c-0.7,2.6-2,5.9-2.8,7.3L100.9,114.7z"/>
		<path class="st1" d="M119.1,93.4c-0.5,0-1.2,0-2,0.1c-4.1,0.7-6.3,3.7-6.8,6.9h0.1c0.9-1.2,2.6-2.2,4.7-2.2c3.4,0,5.9,2.5,5.9,6.3
			c0,3.6-2.4,6.9-6.5,6.9c-4.2,0-6.9-3.2-6.9-8.3c0-3.8,1.4-6.9,3.3-8.8c1.6-1.6,3.8-2.6,6.2-2.9c0.8-0.1,1.4-0.1,1.9-0.1
			L119.1,93.4L119.1,93.4z M118.3,104.6c0-2.8-1.6-4.5-4-4.5c-1.6,0-3.1,1-3.8,2.4c-0.2,0.3-0.3,0.7-0.3,1.2
			c0.1,3.2,1.5,5.6,4.3,5.6C116.8,109.3,118.3,107.4,118.3,104.6z"/>
	</g>
</g>
</svg>
