<?xml version="1.0" encoding="utf-8"?>
<!-- Generator: Adobe Illustrator 20.1.0, SVG Export Plug-In . SVG Version: 6.00 Build 0)  -->
<svg version="1.1" id="Layer_1" xmlns="http://www.w3.org/2000/svg" xmlns:xlink="http://www.w3.org/1999/xlink" x="0px" y="0px"
	 width="129px" height="129px" viewBox="0 0 129 129" style="enable-background:new 0 0 129 129;" xml:space="preserve">
<style type="text/css">
	.st0{fill:#D1D1D1;}
	.st1{fill:#FFFFFF;}
</style>
<circle class="st0" cx="64.7" cy="42.3" r="26.5"/>
<circle class="st1" cx="64.7" cy="42.3" r="20.5"/>
<path class="st0" d="M64.5,31.8h0.3c0.9,0,1.7,0.7,1.7,1.7v17.7c0,0.9-0.7,1.7-1.7,1.7h-0.3c-0.9,0-1.7-0.7-1.7-1.7V33.5
	C62.9,32.5,63.6,31.8,64.5,31.8z"/>
<path class="st0" d="M55.9,40.5h17.7c0.9,0,1.7,0.7,1.7,1.7v0.3c0,0.9-0.7,1.7-1.7,1.7H55.9c-0.9,0-1.7-0.7-1.7-1.7v-0.3
	C54.2,41.2,54.9,40.5,55.9,40.5z"/>
</svg>
