<?xml version="1.0" encoding="utf-8"?>
<!-- Generator: Adobe Illustrator 20.1.0, SVG Export Plug-In . SVG Version: 6.00 Build 0)  -->
<svg version="1.1" id="Layer_1" xmlns="http://www.w3.org/2000/svg" xmlns:xlink="http://www.w3.org/1999/xlink" x="0px" y="0px"
	 width="53px" height="53px" viewBox="0 0 53 53" style="enable-background:new 0 0 53 53;" xml:space="preserve">
<style type="text/css">
	.st0{fill:url(#SVGID_1_);}
	.st1{fill:#FFFFFF;}
</style>
<linearGradient id="SVGID_1_" gradientUnits="userSpaceOnUse" x1="19.1937" y1="51.98" x2="33.8063" y2="1.02">
	<stop  offset="0" style="stop-color:#A6C25E"/>
	<stop  offset="1" style="stop-color:#76914A"/>
</linearGradient>
<circle class="st0" cx="26.5" cy="26.5" r="26.5"/>
<g>
	<path class="st1" d="M27.7,30c0,0.3,0,0.6,0,0.9c0,0.3,0.1,0.5,0.2,0.7c0.1,0.2,0.2,0.4,0.4,0.5s0.4,0.2,0.7,0.2
		c0.2,0,0.3,0,0.6-0.1c0.2,0,0.4-0.1,0.6-0.1s0.3-0.1,0.5-0.2c0.1-0.1,0.2-0.1,0.3-0.1c0,0,0.1,0,0.1,0c0,0,0,0.1,0,0.2
		c0,0.1,0,0.1-0.1,0.2c0,0.1-0.1,0.1-0.1,0.1c-0.1,0.1-0.4,0.2-0.8,0.4c-0.4,0.2-0.8,0.4-1.3,0.6c-0.5,0.2-0.9,0.4-1.4,0.5
		c-0.4,0.1-0.8,0.2-1.1,0.2c-0.3,0-0.6-0.1-0.8-0.3c-0.2-0.2-0.3-0.5-0.3-0.8c0-0.1,0-0.2,0-0.3c0-0.1,0-0.2,0-0.3
		c0-0.1,0-0.4,0.1-0.8s0.1-0.8,0.1-1.3c0-0.5,0.1-1,0.1-1.5c0-0.5,0-0.9,0-1.3v-0.8c0-0.4,0-0.7-0.1-1s-0.1-0.5-0.2-0.7
		c-0.1-0.1-0.2-0.2-0.3-0.3c-0.1-0.1-0.2-0.1-0.4-0.1c-0.1,0-0.2,0-0.3,0.1s-0.2,0.1-0.2,0.1c0,0-0.1,0-0.1-0.1
		c-0.1-0.1-0.1-0.2,0-0.2c0.1-0.1,0.3-0.2,0.6-0.4c0.3-0.2,0.7-0.3,1.1-0.5c0.4-0.2,0.8-0.4,1.2-0.5c0.4-0.2,0.7-0.2,0.8-0.2
		c0.2,0,0.3,0,0.3,0.1c0.1,0.1,0.1,0.2,0.1,0.3v0.1c0,0.1,0,0.4-0.1,0.7c0,0.3-0.1,0.7-0.1,1.2c-0.1,0.5-0.1,1-0.1,1.6
		c0,0.6-0.1,1.3-0.1,2V30z M26.8,18.5c0.1,0,0.2,0.1,0.4,0.2c0.2,0.1,0.3,0.3,0.5,0.5c0.2,0.2,0.3,0.4,0.5,0.5
		c0.1,0.2,0.2,0.3,0.2,0.4c0,0.1-0.1,0.2-0.3,0.3c-0.2,0.1-0.4,0.3-0.6,0.5c-0.2,0.2-0.4,0.3-0.7,0.4c-0.2,0.1-0.4,0.2-0.5,0.2
		c0,0-0.2-0.1-0.3-0.2c-0.2-0.1-0.3-0.3-0.5-0.5c-0.2-0.2-0.3-0.3-0.5-0.5c-0.1-0.2-0.2-0.3-0.2-0.3c0-0.1,0.1-0.2,0.3-0.3
		c0.2-0.2,0.4-0.3,0.6-0.5c0.2-0.2,0.4-0.3,0.7-0.4C26.7,18.6,26.8,18.5,26.8,18.5z"/>
</g>
</svg>
