<?xml version="1.0" encoding="utf-8"?>
<!-- Generator: Adobe Illustrator 20.1.0, SVG Export Plug-In . SVG Version: 6.00 Build 0)  -->
<svg version="1.1" id="Layer_1" xmlns="http://www.w3.org/2000/svg" xmlns:xlink="http://www.w3.org/1999/xlink" x="0px" y="0px"
	 width="70px" height="70px" viewBox="0 0 70 70" style="enable-background:new 0 0 70 70;" xml:space="preserve">
<style type="text/css">
	.st0{fill:#90AB59;}
</style>
<path class="st0" d="M35,1c18.7,0,34,15.3,34,34S53.7,69,35,69S1,53.7,1,35S16.3,1,35,1 M35,0C15.7,0,0,15.7,0,35s15.7,35,35,35
	s35-15.7,35-35S54.3,0,35,0L35,0z"/>
<title>bus</title>
<g>
	<path class="st0" d="M48.1,25h-0.9v-1c0-0.3-0.2-0.5-0.5-0.5c-0.3,0-0.5,0.2-0.5,0.5v1H21.9c-1.6,0-2.9,1.3-2.9,2.9v5.8v2.9
		c0,1.6,1.3,2.9,2.9,2.9h3.8c0.2,0.6,0.6,1.1,1.1,1.4H20c-0.3,0-0.5,0.2-0.5,0.5S19.7,42,20,42h30c0.3,0,0.5-0.2,0.5-0.5
		S50.3,41,50,41h-3c0.5-0.3,0.9-0.8,1.1-1.4c1.6,0,2.9-1.3,2.9-2.9v-2.4v-6.3C51,26.3,49.7,25,48.1,25z M50,33.8h-6.3
		c-0.3,0-0.5-0.2-0.5-0.5v-4.4c0-0.3,0.2-0.5,0.5-0.5H50V33.8z M21.9,38.6c-1.1,0-1.9-0.9-1.9-1.9v-1.9h16.5v3.9h-5.1c0,0,0,0,0,0
		c0-1.6-1.3-2.9-2.9-2.9s-2.9,1.3-2.9,2.9c0,0,0,0,0,0H21.9z M37.4,38.6v-9.7c0-0.3,0.2-0.5,0.5-0.5h2c0.3,0,0.5,0.2,0.5,0.5v9.7
		H37.4z M30.4,38.6h-3.9c0-1.1,0.9-1.9,1.9-1.9S30.4,37.5,30.4,38.6z M30.1,39.6c-0.3,0.6-1,1-1.7,1s-1.3-0.4-1.7-1H30.1z M30.1,41
		c0.5-0.3,0.9-0.8,1.1-1.4h5.8h0.5h3.4h1.9c0.2,0.6,0.6,1.1,1.1,1.4H30.1z M47.1,39.6c-0.3,0.6-1,1-1.7,1s-1.3-0.4-1.7-1H47.1z
		 M43.5,38.6c0-1.1,0.9-1.9,1.9-1.9s1.9,0.9,1.9,1.9H43.5z M48.3,38.6c0-1.6-1.3-2.9-2.9-2.9c-1.6,0-2.9,1.3-2.9,2.9c0,0,0,0,0,0
		h-1.2v-9.7c0-0.8-0.7-1.4-1.5-1.4h-1.9c-0.8,0-1.4,0.7-1.4,1.4v4.9H20v-5.8c0-1.1,0.9-1.9,1.9-1.9h24.7c0,0,0,0,0,0c0,0,0,0,0,0
		h1.4c0.9,0,1.7,0.6,1.9,1.5h-6.2c-0.8,0-1.4,0.7-1.4,1.4v4.4c0,0.8,0.7,1.4,1.4,1.4H50v1.9C50,37.6,49.3,38.4,48.3,38.6z"/>
	<path class="st0" d="M34,27.5h-3.8c-0.8,0-1.4,0.7-1.5,1.4v2.4c0,0.8,0.7,1.4,1.5,1.4H34c0.8,0,1.5-0.7,1.5-1.5v-2.4
		C35.4,28.1,34.8,27.5,34,27.5z M34.5,31.3c0,0.3-0.2,0.5-0.5,0.5h-3.9c-0.3,0-0.5-0.2-0.5-0.5v-2.4c0-0.3,0.2-0.5,0.5-0.5H34
		c0.3,0,0.5,0.2,0.5,0.5V31.3z"/>
	<path class="st0" d="M26.3,27.5h-3.9c-0.8,0-1.4,0.7-1.5,1.4v2.4c0,0.8,0.7,1.4,1.5,1.4h3.9c0.8,0,1.5-0.7,1.4-1.5v-2.4
		C27.7,28.1,27.1,27.5,26.3,27.5z M26.8,31.3c0,0.3-0.2,0.5-0.5,0.5h-3.9c-0.3,0-0.5-0.2-0.5-0.5v-2.4c0-0.3,0.2-0.5,0.5-0.5h3.9
		c0.3,0,0.5,0.2,0.5,0.5V31.3z"/>
</g>
</svg>
