<?xml version="1.0" encoding="utf-8"?>
<!-- Generator: Adobe Illustrator 20.1.0, SVG Export Plug-In . SVG Version: 6.00 Build 0)  -->
<svg version="1.1" id="Layer_1" xmlns="http://www.w3.org/2000/svg" xmlns:xlink="http://www.w3.org/1999/xlink" x="0px" y="0px"
	 width="9px" height="15px" viewBox="0 0 9 15" style="enable-background:new 0 0 9 15;" xml:space="preserve">
<style type="text/css">
	.st0{fill:#323232;}
</style>
<g>
	<rect x="-0.6" y="3.2" transform="matrix(0.7071 -0.7071 0.7071 0.7071 -1.6973 4.3101)" class="st0" width="9.9" height="2"/>
</g>
<g>
	<rect x="3.5" y="5.3" transform="matrix(0.7071 -0.7071 0.7071 0.7071 -5.9071 6.1882)" class="st0" width="2" height="9.9"/>
</g>
</svg>
