<?xml version="1.0" encoding="utf-8"?>
<!-- Generator: Adobe Illustrator 20.1.0, SVG Export Plug-In . SVG Version: 6.00 Build 0)  -->
<svg version="1.1" id="Layer_1" xmlns="http://www.w3.org/2000/svg" xmlns:xlink="http://www.w3.org/1999/xlink" x="0px" y="0px"
	 width="72px" height="72px" viewBox="0 0 72 72" style="enable-background:new 0 0 72 72;" xml:space="preserve">
<style type="text/css">
	.st0{fill:none;}
	.st1{fill:#6DA6C0;}
	.st2{fill:#D39754;}
	.st3{fill:#BBBCBB;}
	.st4{fill:#303030;}
	.st5{fill:#EFEFEE;}
	.st6{fill:#C3C3C3;}
</style>
<g>
	<g>
		<path class="st0" d="M37.5,37.5c0.4-0.4,0.7-1,0.6-1.6c0-0.1,0-0.3,0.1-0.4l5-6.8l-6.8,5c-0.1,0.1-0.2,0.1-0.4,0.1
			c0,0-0.1,0-0.1,0c-0.6,0-1.1,0.2-1.5,0.6c-0.2,0.1-0.3,0.3-0.3,0.5c0.7,0.9,1.8,2,2.7,2.7C37.1,37.7,37.4,37.7,37.5,37.5z"/>
		<path class="st1" d="M46.5,25.5c-0.2-0.2-0.5-0.2-0.8-0.1l-9.8,7.2c-0.9,0-1.7,0.4-2.3,1c-0.2,0.2,0.7,1,0.8,0.8
			c0.4-0.4,1-0.6,1.5-0.6c0,0,0.1,0,0.1,0c0.1,0,0.3,0,0.4-0.1l6.8-5l-5,6.8c-0.1,0.1-0.1,0.2-0.1,0.4c0,0.6-0.2,1.2-0.6,1.6
			c-0.2,0.2,0.6,1,0.8,0.8c0.6-0.6,1-1.4,1-2.3l7.2-9.8C46.7,26.1,46.7,25.7,46.5,25.5z"/>
	</g>
	<g>
		<path class="st0" d="M34.5,34.5c-0.4,0.4-0.7,1-0.6,1.6c0,0.1,0,0.3-0.1,0.4l-5,6.8l6.8-5c0.1-0.1,0.2-0.1,0.4-0.1
			c0,0,0.1,0,0.1,0c0.6,0,1.1-0.2,1.5-0.6c0.2-0.1,0.3-0.3,0.3-0.5c-0.7-0.9-1.8-2-2.7-2.7C34.9,34.3,34.6,34.3,34.5,34.5z"/>
		<path class="st2" d="M25.6,46.5c0.2,0.2,0.5,0.2,0.8,0.1l9.8-7.2c0.9,0,1.7-0.4,2.3-1c0.2-0.2-0.7-1-0.8-0.8
			c-0.4,0.4-1,0.6-1.5,0.6c0,0-0.1,0-0.1,0c-0.1,0-0.3,0-0.4,0.1l-6.8,5l5-6.8c0.1-0.1,0.1-0.2,0.1-0.4c0-0.6,0.2-1.2,0.6-1.6
			c0.2-0.2-0.6-1-0.8-0.8c-0.6,0.6-1,1.4-1,2.3l-7.2,9.8C25.3,45.9,25.3,46.3,25.6,46.5z"/>
	</g>
	<path class="st3" d="M51.8,35.4H49c-0.1-2.3-0.8-4.4-2-6.3c-0.2-0.3-0.5-0.4-0.8-0.2c-0.3,0.2-0.4,0.5-0.2,0.8
		c1.2,1.9,1.8,4.1,1.8,6.3c0,6.5-5.3,11.8-11.8,11.8c-2.3,0-4.4-0.6-6.3-1.8c-0.3-0.2-0.6-0.1-0.8,0.2c-0.2,0.3-0.1,0.6,0.2,0.8
		c1.9,1.2,4.1,1.9,6.4,2v2.8c0,0.3,0.3,0.6,0.6,0.6s0.6-0.3,0.6-0.6V49c3.2-0.1,6-1.4,8.2-3.4l0.9,0.9c0.1,0.1,0.3,0.2,0.4,0.2
		c0.2,0,0.3-0.1,0.4-0.2c0.2-0.2,0.2-0.6,0-0.8l-0.9-0.9c2-2.2,3.2-5,3.4-8.2h2.8c0.3,0,0.6-0.3,0.6-0.6
		C52.4,35.6,52.1,35.4,51.8,35.4z"/>
	<path class="st4" d="M36,35.4c-0.3,0-0.6,0.3-0.6,0.6c0,0.3,0.3,0.6,0.6,0.6c0.3,0,0.6-0.3,0.6-0.6C36.6,35.7,36.3,35.4,36,35.4z"
		/>
	<path class="st5" d="M49,23c-3.5-3.5-8.1-5.4-13-5.4c-4.9,0-9.5,1.9-13,5.4c-3.5,3.5-5.4,8.1-5.4,13c0,4.9,1.9,9.5,5.4,13
		c3.5,3.5,8.1,5.4,13,5.4c4.9,0,9.5-1.9,13-5.4c3.5-3.5,5.4-8.1,5.4-13C54.4,31.1,52.5,26.5,49,23z M36,53.2
		c-9.5,0-17.2-7.7-17.2-17.2S26.5,18.8,36,18.8S53.2,26.5,53.2,36S45.5,53.2,36,53.2z"/>
	<path class="st3" d="M25.8,43.2c0.3-0.2,0.4-0.5,0.2-0.8c-1.2-1.9-1.8-4.1-1.8-6.3c0-6.5,5.3-11.8,11.8-11.8c2.3,0,4.4,0.6,6.3,1.8
		c0.3,0.2,0.6,0.1,0.8-0.2c0.2-0.3,0.1-0.6-0.2-0.8c-1.9-1.2-4.1-1.9-6.4-2v-2.8c0-0.3-0.3-0.6-0.6-0.6s-0.6,0.3-0.6,0.6V23
		c-3.1,0.1-6,1.4-8.2,3.4l-0.9-0.9c-0.2-0.2-0.6-0.2-0.8,0c-0.2,0.2-0.2,0.6,0,0.8l0.9,0.9c-2,2.2-3.3,5-3.4,8.2h-2.8
		c-0.3,0-0.6,0.3-0.6,0.6c0,0.3,0.3,0.6,0.6,0.6H23c0.1,2.3,0.8,4.5,2,6.4c0.1,0.2,0.3,0.3,0.5,0.3C25.6,43.3,25.7,43.2,25.8,43.2z"
		/>
</g>
<g>
	<path class="st6" d="M40,8.6c-0.1,0.2-0.3,0.4-0.5,0.6c-0.2,0.2-0.4,0.4-0.7,0.5c-0.3,0.1-0.6,0.3-0.9,0.3s-0.7,0.1-1.1,0.1
		c-0.6,0-1.2-0.1-1.8-0.3c-0.5-0.2-1-0.5-1.4-0.9c-0.4-0.4-0.7-0.9-0.9-1.4c-0.2-0.5-0.3-1.1-0.3-1.8s0.1-1.2,0.3-1.8
		c0.2-0.5,0.5-1,0.9-1.4C34,2.2,34.5,1.8,35,1.6s1.1-0.3,1.8-0.3c0.3,0,0.6,0,0.9,0.1c0.3,0.1,0.6,0.2,0.8,0.3
		c0.3,0.1,0.5,0.3,0.7,0.4c0.2,0.2,0.4,0.4,0.5,0.6l-0.7,0.5C39,3,38.9,2.9,38.7,2.8c-0.1-0.1-0.3-0.3-0.5-0.4
		c-0.2-0.1-0.4-0.2-0.7-0.3c-0.2-0.1-0.5-0.1-0.8-0.1c-0.6,0-1,0.1-1.5,0.3c-0.4,0.2-0.8,0.5-1.1,0.8c-0.3,0.3-0.5,0.7-0.7,1.2
		c-0.2,0.4-0.2,0.9-0.2,1.4c0,0.5,0.1,1,0.2,1.4s0.4,0.8,0.7,1.2s0.7,0.6,1.1,0.8c0.4,0.2,0.9,0.3,1.5,0.3c0.5,0,1-0.1,1.4-0.3
		c0.4-0.2,0.8-0.5,1.1-1L40,8.6z"/>
</g>
<g>
	<path class="st6" d="M65.3,30.2h2.5c0.3,0,0.6,0,1,0.1c0.3,0.1,0.6,0.2,0.9,0.3c0.3,0.2,0.5,0.4,0.6,0.7c0.2,0.3,0.2,0.6,0.2,1.1
		c0,0.4-0.1,0.8-0.4,1.2s-0.6,0.5-1.1,0.7v0c0.6,0.1,1,0.3,1.4,0.6c0.4,0.4,0.5,0.9,0.5,1.5c0,0.4-0.1,0.7-0.2,1
		c-0.1,0.3-0.4,0.5-0.6,0.7s-0.6,0.4-1,0.5c-0.4,0.1-0.8,0.2-1.3,0.2h-2.5V30.2z M66.2,33.9h1.7c0.2,0,0.4,0,0.6-0.1
		c0.2,0,0.4-0.1,0.6-0.2c0.2-0.1,0.3-0.3,0.4-0.5c0.1-0.2,0.2-0.4,0.2-0.7c0-0.3-0.1-0.5-0.2-0.7c-0.1-0.2-0.3-0.3-0.4-0.5
		c-0.2-0.1-0.4-0.2-0.6-0.3c-0.2-0.1-0.5-0.1-0.8-0.1h-1.5V33.9z M66.2,37.9h1.6c0.3,0,0.6,0,0.9-0.1c0.3-0.1,0.5-0.2,0.7-0.3
		s0.4-0.3,0.5-0.5c0.1-0.2,0.2-0.5,0.2-0.8c0-0.6-0.2-1-0.6-1.3s-0.9-0.4-1.6-0.4h-1.8V37.9z"/>
</g>
<g>
	<path class="st6" d="M3,33.8h0.4c0.3,0,0.5,0,0.8-0.1s0.5-0.1,0.7-0.3c0.2-0.1,0.4-0.3,0.5-0.5s0.2-0.4,0.2-0.7
		c0-0.5-0.2-0.9-0.5-1.2c-0.3-0.3-0.8-0.4-1.3-0.4c-0.4,0-0.8,0.1-1.1,0.3S2.1,31.5,2,31.8l-0.7-0.5c0.3-0.5,0.6-0.8,1-1
		c0.4-0.2,0.9-0.3,1.5-0.3c0.4,0,0.7,0,1.1,0.1c0.3,0.1,0.6,0.2,0.8,0.4c0.2,0.2,0.4,0.4,0.5,0.7c0.1,0.3,0.2,0.6,0.2,1
		c0,0.2,0,0.5-0.1,0.7c-0.1,0.2-0.2,0.4-0.4,0.6s-0.3,0.3-0.6,0.4s-0.4,0.2-0.6,0.3v0c0.2,0,0.5,0.1,0.8,0.2s0.5,0.2,0.7,0.4
		s0.4,0.4,0.5,0.6c0.1,0.3,0.2,0.6,0.2,0.9c0,0.4-0.1,0.7-0.2,1.1S6.3,38,6,38.2c-0.3,0.2-0.6,0.4-1,0.5c-0.4,0.1-0.8,0.2-1.2,0.2
		c-0.4,0-0.7,0-1-0.1c-0.3-0.1-0.6-0.2-0.8-0.4c-0.2-0.2-0.4-0.3-0.6-0.6c-0.2-0.2-0.3-0.5-0.5-0.7l0.7-0.4c0.1,0.2,0.2,0.4,0.3,0.6
		c0.1,0.2,0.3,0.3,0.4,0.5S2.8,38,3.1,38c0.2,0.1,0.5,0.1,0.8,0.1c0.7,0,1.2-0.2,1.6-0.5C5.9,37.3,6,36.9,6,36.3
		C6,36,6,35.7,5.8,35.5c-0.1-0.2-0.3-0.4-0.6-0.5c-0.2-0.1-0.5-0.2-0.9-0.3s-0.7-0.1-1-0.1H3V33.8z"/>
</g>
<g>
	<path class="st6" d="M31.5,63.5v3.8H33c0-0.6,0.2-1.1,0.4-1.6c0.2-0.5,0.5-0.9,0.9-1.3c0.4-0.4,0.8-0.6,1.4-0.8
		c0.5-0.2,1.1-0.3,1.7-0.3c0.6,0,1.2,0.1,1.8,0.3c0.5,0.2,1,0.5,1.4,0.9c0.4,0.4,0.7,0.9,0.9,1.4s0.3,1.1,0.3,1.8s-0.1,1.2-0.3,1.8
		s-0.5,1-0.9,1.4s-0.9,0.7-1.4,0.9c-0.5,0.2-1.1,0.3-1.8,0.3c-0.6,0-1.2-0.1-1.7-0.3c-0.5-0.2-1-0.5-1.4-0.9
		c-0.4-0.4-0.7-0.8-0.9-1.3c-0.2-0.5-0.4-1-0.4-1.6h-1.5V72h-0.9v-8.5H31.5z M33.9,67.8c0,0.5,0.1,1,0.2,1.4s0.4,0.8,0.7,1.2
		s0.7,0.6,1.1,0.8c0.4,0.2,0.9,0.3,1.5,0.3s1-0.1,1.5-0.3c0.4-0.2,0.8-0.5,1.1-0.8s0.5-0.7,0.7-1.2s0.2-0.9,0.2-1.4
		c0-0.5-0.1-1-0.2-1.4s-0.4-0.8-0.7-1.2s-0.7-0.6-1.1-0.8c-0.4-0.2-0.9-0.3-1.5-0.3s-1,0.1-1.5,0.3c-0.4,0.2-0.8,0.5-1.1,0.8
		s-0.5,0.7-0.7,1.2S33.9,67.3,33.9,67.8z"/>
</g>
</svg>
