<?xml version="1.0" encoding="utf-8"?>
<!-- Generator: Adobe Illustrator 20.1.0, SVG Export Plug-In . SVG Version: 6.00 Build 0)  -->
<svg version="1.1" id="Layer_2" xmlns="http://www.w3.org/2000/svg" xmlns:xlink="http://www.w3.org/1999/xlink" x="0px" y="0px"
	 width="15px" height="9px" viewBox="0 0 15 9" style="enable-background:new 0 0 15 9;" xml:space="preserve">
<style type="text/css">
	.st0{fill:#323232;}
</style>
<g>
	<rect x="-0.4" y="3.5" transform="matrix(0.7071 -0.7071 0.7071 0.7071 -1.864 4.5)" class="st0" width="9.9" height="2"/>
</g>
<g>
	<rect x="9.5" y="-0.4" transform="matrix(0.7071 -0.7071 0.7071 0.7071 -0.1066 8.7426)" class="st0" width="2" height="9.9"/>
</g>
</svg>
