<?xml version="1.0" encoding="utf-8"?>
<!-- Generator: Adobe Illustrator 20.1.0, SVG Export Plug-In . SVG Version: 6.00 Build 0)  -->
<svg version="1.1" id="Layer_1" xmlns="http://www.w3.org/2000/svg" xmlns:xlink="http://www.w3.org/1999/xlink" x="0px" y="0px"
	 width="33px" height="21px" viewBox="0 0 33 21" style="enable-background:new 0 0 33 21;" xml:space="preserve">
<style type="text/css">
	.st0{fill:#389CCE;}
</style>
<g id="Layer_2">
	<g>
		<path class="st0" d="M11.1,13c-0.4-0.3-0.6-0.2-0.7,0.1c-0.1,0.3-0.1,0.6,0.1,0.8c1.2,1,1.7,1.3,2,1.3c0.2,0,0.3-0.2,0.2-0.4
			C12.3,14.2,11.3,13.2,11.1,13z M11.3,15.1c-0.3-0.1-0.6-0.3-0.9-0.4c-0.1,0-0.1-0.1-0.1,0c-0.1,0-0.1,0.1-0.1,0.2
			s-0.1,0.2-0.1,0.4c-0.2,0.8-0.1,1,0.3,0.5c0-0.1,0.1-0.1,0.1-0.2c0.1-0.2,0.2-0.2,0.4-0.2C11.1,15.2,11.3,15.2,11.3,15.1
			C11.3,15.2,11.4,15.2,11.3,15.1C11.4,15.2,11.3,15.1,11.3,15.1z M20.4,20.2L20.4,20.2c-0.2,0-0.3,0-0.4,0c-0.2,0-0.2-0.1-0.4-0.2
			c-0.1-0.1-0.2-0.1-0.2-0.2v-0.1c0-0.4-0.1-0.9-0.3-1.2l-0.3-1.1c-0.1-0.4-0.2-0.7-0.2-1.1c0.1-0.2,0-0.4-0.1-0.6l-0.2-0.5
			c-0.1-0.1-0.1-0.3-0.1-0.4c-0.1-0.2-0.1-0.2-0.1-0.3c-0.2-0.1-0.3-0.3-0.6-0.5c-0.4-0.3-0.2,0.2-0.1,0.7c0.1,0.3,0.1,0.5,0.1,0.8
			l0.2,0.5c0,0.2,0.1,0.4,0.2,0.5c0.2,0.3,0.3,0.7,0.4,1l0.2,1.1c0.1,0.4,0.1,0.9,0.3,1.2c0.1,0.1,0.2,0.1,0.2,0.1l0,0
			c0.1,0.2,0.1,0.2,0.3,0.3c0.1,0.1,0.3,0.2,0.5,0.2c0.1,0.1,0.4,0.1,0.5,0.1l0,0c0.2,0,0.2-0.2,0.2-0.3
			C20.6,20.2,20.6,20.1,20.4,20.2z M14.4,11.6c-0.2-0.3-0.4-0.6-0.5-0.8c0,0,0,0-0.1,0c0,0,0,0-0.1,0c0,0.1-0.1,0.1-0.1,0.2
			c-0.2-0.1-0.8-0.1-1.2,0c-0.1,0-0.1,0.1-0.2,0.1c0,0.1,0,0.1,0.1,0.1c0.1,0.1,0.2,0.3,0.3,0.5c0.4,0.7,0.5,1.2,0.5,1.3
			c0,0-0.2-0.2-0.3-0.3c-0.2-0.2-0.2-0.3-0.4-0.5c-0.3-0.4-0.6-0.7-0.9-1c-0.3-0.3-0.7-0.6-1-0.8c-0.1-0.1-0.2-0.1-0.3,0l0,0
			c-0.1,0-0.1,0.1-0.1,0.1s0,0.1-0.1,0.1c-0.1-0.1-0.1-0.1-0.2-0.2C9.6,10.2,9.5,10,9.3,9.9c-0.1-0.1-0.1,0-0.1,0l0,0
			c-0.1-0.1-0.1,0-0.1,0.1c-0.1,0.1-0.2,0.2-0.3,0.4l-0.3,0.4c-0.1,0.1-0.1,0.1-0.2,0.1c-0.1,0-0.1-0.1-0.2-0.1c-0.1,0-0.1,0-0.2,0
			s-0.2,0-0.2,0.1c-0.2,0.3-0.5,0.7-0.8,1c-0.4,0.1-0.7,0.2-1,0.4c-2.1,1.1-3.2,2.6-3.1,4.3c0,0.1,0,0.2,0.1,0.3l-0.2,0.3l-0.7,1
			c-0.2,0.3-0.4,0.5-0.5,0.8v0.1c-0.1,0.2-0.3,0.2-0.5,0.3c-0.2,0.1-0.2,0.1-0.4,0.1s-0.3,0-0.4,0l0,0l0,0C0,19.5,0,19.6,0,19.7
			s0.1,0.2,0.2,0.2s0.4,0,0.5,0s0.3-0.1,0.5-0.2s0.4-0.2,0.6-0.4c0.1,0,0.2,0,0.2-0.1c0.2-0.2,0.5-0.7,0.7-1l0.5-0.8l0.6-0.8
			l0.3-0.5C4.2,16.2,4.3,16,4.5,16l0,0c0.2-0.1,0.2-0.2,0.3-0.2L5,15.4l0.5-0.6c0.3-0.4,0.7-0.8,1-1.1c0.6-0.7,1.1-1.4,1.6-2.2
			l0.1-0.1h0.1c0.2,0.3,0.5,0.5,0.8,0.8c0.2,0.2,0.4,0.4,0.6,0.5c-0.1,0.3-0.1,0.5-0.2,0.8c-0.1-0.1-0.2-0.2-0.3-0.3
			c-0.3-0.2-0.5-0.4-0.8-0.6c0,0-0.1-0.1-0.2,0c-0.1,0-0.1,0-0.1,0.1c-0.8,1-1.4,1.8-2,2.8c-0.8,1.2-1.1,2.1-0.2,2
			c1-0.2,2.1-0.5,2.9-0.8c-0.1,0.3-0.1,0.6-0.2,0.9c-0.1,0.4-0.2,0.8-0.3,1.2S8.1,19.6,8.1,20c0,0,0,0,0,0.1
			c-0.2,0.3-0.8,0.4-1.1,0.4l0,0l0,0c-0.1,0-0.2,0.1-0.2,0.2C6.8,20.9,6.9,21,7,21c0.3,0,0.6-0.1,0.9-0.2c0.2-0.1,0.3-0.2,0.4-0.3
			l0.1-0.1c0.1,0,0.1-0.1,0.2-0.2c0.1-0.4,0.2-0.8,0.3-1.2S9,18.2,9,17.8c0.1-0.4,0.2-0.8,0.2-1.2c0-0.1,0.1-0.2,0.1-0.3
			c0.1-0.1,0.2-0.1,0.2-0.3l0.1-0.6c0.2-0.8,0.4-1.6,0.6-2.4c0.1-0.6,0.3-1.2,0.4-1.8c0,0,0,0,0.1-0.1h0.1c0.1,0.2,0.3,0.4,0.4,0.5
			l0.8,1.1c0.6,0.8,1.5,2,1.7,2.1c0.2,0.1,0.5,0,0.9-0.4c0.3-0.2,0.7-0.8,1.1-1.4c0.1-0.1,0.1-0.1,0-0.2
			C15.2,12.7,14.8,12.3,14.4,11.6z M9.8,11.8c-0.1-0.1-0.2-0.1-0.3-0.2c-0.2-0.1-0.5-0.3-0.8-0.4c0,0,0,0,0.1-0.1L9,10.7v-0.1
			l0.1-0.1l0.1,0.1c0.1,0.1,0.1,0.2,0.1,0.3c0.1,0.2,0.2,0.4,0.4,0.6l0.1,0.1C9.8,11.8,9.8,11.8,9.8,11.8z M4.3,18.6L4.3,18.6
			L4,19.4l0,0v0.1c-0.1,0.1-0.2,0.2-0.5,0.2c-0.2,0-0.5,0-0.8-0.1l0,0l0,0c-0.1,0-0.2,0.1-0.2,0.2S2.6,20,2.7,20
			c0.3,0.1,0.6,0.1,1,0c0.1,0,0.3-0.1,0.4-0.1s0.1-0.1,0.1-0.1c0.2,0,0.2-0.1,0.3-0.2l0.3-1C4.9,18.2,4.5,17.9,4.3,18.6z M32.9,0.7
			c-0.1-0.1-0.2-0.2-0.3-0.1l0,0c-0.2,0.2-0.6,0.2-1,0.3S31,1,30.6,1s-0.8,0-1.1-0.1c-0.4-0.1-0.8-0.1-1.1-0.1
			c-0.8,0-1.5,0.2-2.2,0.4c-0.6,0.2-1.1,0.6-1.5,1c-0.1,0-0.2,0-0.2,0.1c-0.4,0.2-0.6,0.6-0.8,0.9c-0.2,0.3-0.4,0.7-0.7,1
			c-0.4,0.5-0.7,1.1-1,1.7c-0.5-0.5-0.8-0.3-0.9-0.3c0,0-0.5-0.4-2-0.3c-0.4,0-0.7,0.1-1,0.2c-0.2-0.3-0.4-0.5-0.6-0.8L17,4.2
			c-0.2-0.2-0.4-0.5-0.6-0.5c-0.1,0-0.2,0-0.2,0c-0.4-0.1-0.7-0.2-0.9-0.2c-0.4-0.1-0.8-0.1-1.1-0.1s-0.7,0-1-0.1s-0.7-0.1-1-0.3
			l0,0c-0.1-0.1-0.2,0-0.3,0.1s0,0.2,0.1,0.3c0.4,0.2,0.7,0.3,1,0.4c0.4,0.1,0.8,0.1,1.1,0.1s0.7,0,1.1,0c0.2,0,0.4,0.1,0.7,0.1
			c0,0.1,0,0.1,0,0.1l0,0c0.2,0.2,0.4,0.5,0.5,0.6L17,5.3c0.2,0.2,0.5,0.4,0.6,0.7c-0.5,0.4-0.7,0.8-0.8,1.2
			c-0.2,0.5-0.1,0.9,0.1,1.3c-0.4-0.1-1.3-0.3-2,0.4c0,0,0,0-0.1,0.1c-0.3-0.1-0.6-0.2-0.8-0.4l0,0h-0.1l0,0c-0.2-0.1-0.4,0-0.5,0.2
			l-0.2,0.6c-0.1,0.1-0.1,0.1,0,0.2l0.1,0.1c0.2,0.4,0.4,0.7,0.6,1s0.5,0.6,0.8,0.8s0.6,0.5,0.9,0.7c0.2,0.1,0.3,0.2,0.4,0.3
			c0.2,0.2,0.4,0.1,0.5,0.2c0.3,0.2,0.5,0.5,0.8,0.8l0.8,0.8l0,0c0.1,0.1,0.1,0.1,0.2,0.1c0.4,0.3,0.8,0.5,1.2,0.8l0,0
			c0.1,0.1,0.2,0,0.3-0.1c0.1-0.2,0-0.2-0.1-0.3l0,0c-0.4-0.2-0.8-0.4-1.2-0.7c0-0.1,0-0.2-0.1-0.2l-0.8-0.7l0,0
			c-0.1-0.1-0.1-0.4-0.1-0.5c-0.2-0.5-0.7-0.8-0.7-0.1c-0.1,0-0.1-0.1-0.1-0.1l0,0c-0.2-0.1-0.2-0.3-0.3-0.4
			c0.1-0.1,0.1-0.1,0.1-0.2c0.5-0.4,0.8-0.1,1.3-0.6c0.1-0.1,0.2-0.3,0.3-0.4c0.1-0.1,0-0.2-0.1-0.3c-0.3-0.4-0.6-0.8-0.8-1.3l0,0
			l0,0c0.5,0.4,1,0.8,2.1,1.3c0.1,0.2,0.6,0.8,1.5,0.7c-0.4-0.5-0.6-1.1-0.5-1.2s0.5-0.1,0.7,0.1c0.2,0.2,0.5,0.9,0.5,1.1
			c0.6-0.1,0.5-0.6,0.3-1.4C22,9.6,22,9.3,22,8.8l0,0l0,0c0.1,0.1,0.1,0.3,0.1,0.4c0,0,0,0.1,0.1,0.1h0.1L22.9,9
			c0,0.1,0.1,0.1,0.1,0.1c0.1,0.1,0.2,0.1,0.2,0.1c-0.1,0.3-0.2,0.7-0.2,1c-0.1,0.2-0.1,0.4-0.1,0.6c0,0.2,0,0.4,0.2,0.7
			c-0.1,0.3-0.2,0.6-0.2,0.9l-0.3,0.9l0,0c0,0.1,0,0.2,0.1,0.2c-0.1,0.4-0.4,0.8-0.7,1.2l0,0l0,0c-0.1,0.1,0,0.2,0.1,0.3
			s0.2,0,0.3-0.1c0.2-0.5,0.4-0.8,0.5-1.3c0.1,0,0.2-0.1,0.2-0.2l0.2-0.9c0.1-0.3,0.2-0.6,0.2-0.9l0,0c0.2-0.1,0.3-0.4,0.3-0.6
			c0.1-0.2,0.1-0.4,0.1-0.6C24,10,24,9.6,24,9.2L23.9,9c0-0.2-0.1-0.3-0.2-0.4c0-0.6-0.1-0.7-0.2-0.7l-0.3-0.1h-0.1l-0.9,0.1
			c0-0.2,0-0.4-0.1-0.6c0,0,0.1-0.5,0-0.9c0.4-0.7,0.8-1.3,1.2-1.9c0.2-0.3,0.4-0.7,0.8-1c0.2-0.3,0.5-0.6,0.8-0.9l0,0
			c0-0.1,0.1-0.1,0.1-0.2c0.4-0.4,0.9-0.7,1.4-0.9c0.7-0.3,1.4-0.4,2.1-0.4c0.4,0,0.7,0,1.1,0.1c0.4,0,0.8,0.1,1.1,0.1
			s0.8,0,1.1-0.1c0.4-0.1,0.7-0.1,1.1-0.4l0,0C32.9,0.9,33,0.7,32.9,0.7z M16.5,10.9C16.3,11,16.1,11,15.8,11
			c-0.2-0.1-0.3-0.3-0.4-0.4c-0.3-0.2-0.5-0.4-0.8-0.8l-0.5-0.5l0,0h0.1c0.3,0.1,0.7,0.4,1,0.5c0.2,0.1,0.5,0.2,0.8,0.4
			c0.2,0.1,0.3,0.1,0.4,0.1s0.2,0.1,0.2,0.1s0.1,0.1,0.3,0.1c0.1,0,0.1,0,0.2-0.1l0,0l0,0C17,10.7,16.7,10.8,16.5,10.9z M18.8,8.5
			c-0.2,0.1-0.7,0-1-0.5c-0.5-0.5-0.5-0.8-0.3-1c0.3-0.4,0.8-0.2,1,0.3C18.8,8.2,18.9,8.5,18.8,8.5z"/>
	</g>
</g>
</svg>
