<?xml version="1.0" encoding="utf-8"?>
<!-- Generator: Adobe Illustrator 20.1.0, SVG Export Plug-In . SVG Version: 6.00 Build 0)  -->
<svg version="1.1" id="Layer_1" xmlns="http://www.w3.org/2000/svg" xmlns:xlink="http://www.w3.org/1999/xlink" x="0px" y="0px"
	 width="70px" height="70px" viewBox="0 0 70 70" style="enable-background:new 0 0 70 70;" xml:space="preserve">
<style type="text/css">
	.st0{fill:#F9A442;}
</style>
<path class="st0" d="M35,1c18.7,0,34,15.3,34,34S53.7,69,35,69S1,53.7,1,35S16.3,1,35,1 M35,0C15.7,0,0,15.7,0,35s15.7,35,35,35
	s35-15.7,35-35S54.3,0,35,0L35,0z"/>
<title>bus</title>
<title>wagon</title>
<g>
	<path class="st0" d="M35.5,36.5H37c0.3,0,0.5-0.2,0.5-0.5s-0.2-0.5-0.5-0.5h-1.5c-0.3,0-0.5,0.2-0.5,0.5S35.2,36.5,35.5,36.5z"/>
	<path class="st0" d="M51.5,41h-7.1c0.5-0.4,0.9-0.9,1.1-1.5c1,0,1.9-0.5,2.4-1.3c0.6-0.9,0.7-2,0.3-3l-3.9-8.9
		c-0.5-1.1-1.6-1.8-2.8-1.8h-15c-1.7,0-3,1.3-3,3v9c0,1.5,1,2.7,2.4,2.9c0.2,0.6,0.6,1.2,1.1,1.6h-6.6c-0.3,0-0.5,0.2-0.5,0.5
		s0.2,0.5,0.5,0.5h31c0.3,0,0.5-0.2,0.5-0.5S51.8,41,51.5,41z M44.5,39.5c-0.3,0.6-1,1-1.7,1s-1.4-0.4-1.7-1H44.5z M40.8,38.5
		c0-1.1,0.9-2,2-2s2,0.9,2,2H40.8z M45.5,31.5H39c-0.3,0-0.5-0.2-0.5-0.5v-3c0-0.3,0.2-0.5,0.5-0.5h4.8L45.5,31.5z M26.5,25.5h15.2
		c0.7,0,1.4,0.4,1.8,1H39c-0.8,0-1.5,0.7-1.5,1.5v3c0,0.8,0.7,1.5,1.5,1.5h7l0.4,1h-22v-6C24.5,26.4,25.4,25.5,26.5,25.5z
		 M24.5,36.5v-2h22.4l0.5,1.1c0.3,0.7,0.2,1.4-0.2,2c-0.3,0.5-0.8,0.8-1.4,0.9c0-1.6-1.4-2.9-3-2.9s-3,1.3-3,3h-8c0-1.6-1.4-3-3-3
		s-2.9,1.3-3,2.8C25,38.1,24.5,37.4,24.5,36.5z M26.8,38.5c0-1.1,0.9-2,2-2s2,0.9,2,2H26.8z M30.5,39.5c-0.3,0.6-1,1-1.7,1
		s-1.4-0.4-1.7-1H30.5z M31.6,39.5h8.3c0.2,0.6,0.6,1.1,1.1,1.5H30.4C31,40.6,31.4,40.1,31.6,39.5z"/>
</g>
</svg>
