<?xml version="1.0" encoding="utf-8"?>
<!-- Generator: Adobe Illustrator 20.1.0, SVG Export Plug-In . SVG Version: 6.00 Build 0)  -->
<svg version="1.1" id="Layer_1" xmlns="http://www.w3.org/2000/svg" xmlns:xlink="http://www.w3.org/1999/xlink" x="0px" y="0px"
	 width="40px" height="42px" viewBox="0 0 40 40" style="enable-background:new 0 0 40 40;" xml:space="preserve">
<style type="text/css">
	.st0{fill:#FFFFFF;}
</style>
<g id="_x36_B8H4Q.tif">
	<g>
		<g>
			<path class="st0" d="M20,0.6L20,0.6c0.4,0,0.9,0.1,1.4,0.4c3.2,1.9,6,3.5,8.6,4.9c2,1.1,3.8,1.8,5.7,2c0,0,0,0,0,0.1
				c0,0.4-0.1,0.8-0.1,1.2c-0.1,1-0.2,2-0.3,3.1c-0.9,7.3-2.8,12.9-6.2,17.6c-2.3,3.3-5.3,5.9-9,8.1c0,0,0,0,0,0
				c-6-3.5-10.3-8.6-12.8-15.3C5.6,18.4,4.7,13.8,4.4,8c0,0,0,0,0,0c0,0,0,0,0.1,0c2.8-0.3,5.1-1.7,7-2.8c1.2-0.7,2.3-1.3,3.5-2
				c1.2-0.7,2.4-1.4,3.7-2.1C19.1,0.8,19.5,0.6,20,0.6 M20-1.4c-0.8,0-1.6,0.2-2.4,0.7c-2.4,1.4-4.8,2.7-7.2,4.1
				c-2,1.1-3.9,2.2-6.2,2.5C2.9,6.1,2.3,6.8,2.4,8.1c0.3,5.2,1.1,10.3,2.9,15.2c2.6,7.1,7.1,12.6,13.6,16.3c0.4,0.2,0.7,0.3,1.1,0.3
				c0.3,0,0.6-0.1,0.9-0.3c3.8-2.2,7.1-5.1,9.7-8.7c3.9-5.6,5.7-11.9,6.5-18.6c0.2-1.5,0.3-3,0.5-4.5c0-0.1,0-0.1,0-0.2
				C37.4,6.8,37,6,35.9,6c-1.8-0.2-3.4-0.8-5-1.7C28,2.6,25.2,1,22.3-0.7C21.5-1.1,20.7-1.4,20-1.4L20-1.4z"/>
		</g>
	</g>
</g>
<g>
	<path class="st0" d="M20,12c0.6,0,1,0.4,1,1s-0.4,1-1,1s-1-0.4-1-1S19.4,12,20,12 M20,10c-1.7,0-3,1.3-3,3s1.3,3,3,3s3-1.3,3-3
		S21.7,10,20,10L20,10z"/>
</g>
<g>
	<path class="st0" d="M24.2,25h-8.5l2.4-9.7l3.6-1.8L24.2,25z M18.3,23h3.5l-1.5-6.5l-0.4,0.2L18.3,23z"/>
</g>
</svg>
