<?xml version="1.0" encoding="iso-8859-1"?>
<!-- Generator: Adobe Illustrator 21.0.2, SVG Export Plug-In . SVG Version: 6.00 Build 0)  -->
<svg version="1.1" xmlns="http://www.w3.org/2000/svg" xmlns:xlink="http://www.w3.org/1999/xlink" x="0px" y="0px" width="1000px"
	 height="1600px" viewBox="0 0 1000 1600" style="enable-background:new 0 0 1000 1600;" xml:space="preserve">
<g id="_x31_9k_x5F_5s_x5F_3fl_x5F_1">
	<polygon style="fill:#7D4479;" points="283,712 283,666 269,666 269,755 237,755 237,622 269,622 269,645 283,645 283,538 319,538 
		319,453 683,453 683,532 501,532 501,616 451,616 451,712 	"/>
</g>
<g id="&#x421;&#x43B;&#x43E;&#x439;_1">
</g>
</svg>
